സാധാരണ ഒരാൾ അവയ്ക്കകത്തു കാലെടുത്തുവെപ്പാൻ മടിക്കും. ഈ വർഗത്തിലെ സ്ത്രീകൾ
സുതപ്തസുവർണ്ണവർണ്ണം സുതപ്ത സുവർണ്ണത്തിന്റെ വർണ്ണം. സുതപ്തം - നല്ലപോലെ ചുട്ടുപഴു
ഉത്‌ക്കണ്‌ഠകളും സമിതിയുടെ ശ്രദ്ധയിൽപെടാതെ പോകുന്നു. തെറ്റായ പരിസ്ഥിതി ആഘാത
മൂക്കില്ലാ നാട്ടിൽ കസ്തൂരി എന്തിനു- 2234 മൂക്കുതൊടുവാ൯ നാവു നീളംപോരാ- 2235
ശസ്ത്രമണഞ്ഞപോ- തുത്തമൻ ബാണങ്ങളെയ്തു തെരുതെരെ- ക്കൃത്തങ്ങളാക്കിനാൻ
ഘട്ടത്തിൽ അവൻ അവളെ സ്പർശിച്ചിട്ടുണ്ടാവരുത്. സ്ത്രീകളുമായുളളവിവാഹ ബന്ധം അവളുടെ
അടപ്പുപലക മാറ്റി ദ്വാരത്തിൽ കൈയിട്ടു കല്ലെടുത്തു കൊടുക്കും. ഈ കല്ലു കെട്ടിച്ച്
ഭരതനാട്യത്തിൽ രുഗ്മിണീദേവിക്കു കൽപ്പിക്കപ്പെടുന്ന സ്ഥാനം
ഇന്ത്യ, ഫോൺ 08274-249156 മൊ.:+91 9902273468 ഡിപ്പാർട്ടുമെന്റ്‌ ഓഫ്‌ ഫോറസ്റ്റ്‌
പ്രഥമം വരം വൃണേ 10 യഥാ പുരസ്താദ് ഭവിതാ പ്രതീത ഔദ്ദാലകിരാരുണിർമത്പ്രസൃഷ്ടഃ. സുഖം
മാധവ് ഗാഡ്ഗിൽ കേരള ശാസ്ത്രസാഹിത്യ പരിഷത്ത് ആമുഖം ആമുഖം പട്ടികകൾ പട്ടികകൾ
പരസ്പരം ബഭൂവ തുമുലഃ ശബ്ദഃ സിംഹാനാം ഇവ നർദതാം 15 തത്രാദ്ഭുതം അപശ്യാമ സമ്പ്രഹാരം
വിവരിച്ചു തന്നാലും എന്നു പറഞ്ഞു. നബി(സ) അരുളി: അവർ നമ്മുടെ വർഗ്ഗത്തിൽപ്പെട്ടവർ
സംവാദം: 30 05:51, 10 ജനുവരി 2013 ( വിക്കിഗ്രന്ഥശാല:നീക്കം ചെയ്ത താളിന്റെ സംവാദം/
മർദ്ദനപരമായ കലഹങ്ങളും സുഗ്രീവാജ്ഞകളും സാധിക്കുകയില്ലായിരിക്കാം. സ്ത്രീകളെ
നടന്നിട്ടില്ലാത്തവ */ '൮൧ ലോകരഹസ്യം താൾ സൃഷ്ടിച്ചി താൾ: 2 1927. 230 താൾ: 3 1910.
സൃഷ്ടിക്കുന്ന കോണളവ് ഒരു ഡിഗ്രിയാണ്. അതായത് നീട്ടിപ്പിടിച്ച കൈയിലെ ചൂണ്ടുവിരലറ്റം
ഈ മാനിഫെസ്റ്റോ വീണ്ടും അരങ്ങത്തു വന്നതു്. അതിന്റെ ജർമ്മൻപതിപ്പുതന്നെ 1850-നു ശേഷം
പാഴൂർ പെരുംതൃക്കോവിൽ 1 രണ്ടു മഹാരാജാക്കന്മാരുടെ സ്വഭാവവ്യത്യാസം രണ്ടു
ഹരിദ്വാരം ൭൩ താൾ 19026 താൾ: 3 1904. 675 തെറ്റുതിരുത്തൽ വായന നടന്നിട്ടില്ലാത്തവ */
അവരെ ബാധിക്കുകയും ചെയ്യും. എന്നു തിരുമേനി(സ) അരുളി. (ബുഖാരി. 1. 11. 663)
കണ്ണു കുറേ മിഴിച്ച് ഓട്ടക്കണ്ണിട്ട് ഒന്നു നോക്കും. ഞാൻ ഇവിടെ ഇരുന്നു ചത്താലും
അതുകൊണ്ടിനിമേലിലുള്ള കാലം ശ്രുതികൊണ്ടീടിന നിൻ പ്രകീർത്തി വാഴ്ത്താൻ കൊതിപൂണ്ടൊരു
വിവര്ജ്ജിതായൈ നമഃ ഓം വിശ്വരൂപായൈ നമഃ ഓം ജാഗരിണ്യൈ നമഃ ഓം സ്വപന്ത്യൈ നമഃ ഓം
താങ്കൾക്ക് പ്രായശ്ചിത്തമാണ്. അല്ലാഹു താങ്കൾക്ക് രണ്ട് മരണത്തെ(വേദനയെ) ഒരുമിച്ചു
അർഹിക്കുന്നത്. പദ്ധതി ഏകോപനം മനോജ്.കെ സാങ്കേതികവിദ്യാ രൂപകല്പന,സാക്ഷാത്കാരം
ഭവതി യ ഏതാമേവം സാമ്നാമുപനിഷദം വേദോപനിഷദം വേദേതി 1. 13. 4 ഇതി ത്രയോദശഃ ഖണ്ഡഃ ഇതി
നടന്നിട്ടില്ലാത്തവ */ ' കിളിപ്പാട്ട്. കാട്ടുവൻഞ്ഞാനെൻപരാക്രമംസംഗര താൾ 27014 താൾ:
അല്ലാഹുവിന്നുള്ളതാണ്. നാം അവങ്കലേക്കാണ് മടങ്ങിച്ചെല്ലുക. അല്ലാഹുവേ! എന്റെ
നാകത്തിരുന്നുമവനീതലത്തിനെ- ശ്ശോകത്തിനാൽ വിലോകിച്ചുമുടനുടൻ
ലേഖനം 60_ 27 1. 60 പത്ത്രോസ് എഴുതിയ ഒന്നാം ലെഖനം 61_ 27 2. 61 പത്ത്രോസ് എഴുതിയ
ഹൃദയസ്ഥോ നിർവചനൈരംഗാഭിനയഃ കൃതോ നിപുണസാധ്യഃ സൂചൈവോത്പത്തികൃതോ
തിങ്ങിനഭക്ത്യാപുകഴ്ന്നോരനന്തരം. അംഗജാരാതിയാംവിശ്വേശ്വരൻമുനി-
പുത്രകാമേഷ്ടിയിന്നമ്പോടുചെയ്യേണം. സപദിമഖകരണമതിനിന്നുവേണ്ടുന്നോരു
സുഷുമ്നാനാഡീസ്ഥമലശോഷാർഥം യോഗീ ബദ്ധപദ്മാസനോ വായും ചന്ദ്രേണാപൂര്യ യഥാശക്തി
ഇത്യേതദയുക്തം. കുതഃ ലക്ഷ്യത്രയസ്യ ച ദേഹാന്തർഗതത്വേന പരിച്ഛിന്നജ്യോതിഃസ്വരൂപതയാ
ശക്തിയുണ്ടെന്നും, നിങ്ങൾക്കതിൽ സന്തോഷമുണ്ടെന്നും നിങ്ങൾ കാണുന്നതായിരിക്കും.
ജാഗരഃ പരികീർത്യതേ. വികാരാദിവിഹീനത്വാജ്ജാഗരോ മേ ന വിദ്യതേ 60 സൂക്ഷ്മനാഡിഷു
താൾ:ജ്യോതിഷവും ജ്യോതിശ്ശാസ്ത്രവും. 156 4 ഗ്രഹനില ബു ശു പേര്= 25%; 25 100%;
കോമളാകാരായൈ നമഃ ഓം കുരുകുല്ലായൈ നമഃ ഓം കുളേശ്വര്യൈ നമഃ ഓം കുളകുണ്ഡാലയായൈ നമഃ ഓം
ചില നിമിഷങ്ങൾ മാത്രമാണെന്ന്‌ ഉണർത്തുവാൻ തിരുമേനി(സ)കൈകൊണ്ടു ആംഗ്യം കാണിച്ചു.
ഹരിം ഭജേ ഓം പൂർണമദഃ പൂർണമിദം പൂർണാത്പൂർണമുദച്യതേ. പൂർണസ്യ പൂർണമാദായ
ആരാഞ്ഞുകൊണ്ട്‌ അത്‌ `കറന്റ്‌ സയൻസ്‌' ആനുകാലികത്തിന്റെ 2011 ജനുവരി 25 ലക്കത്തിൽ
അർത്ഥം) ഭാഷകളാണെന്നു സംസ്കൃത പക്ഷപാതികൾ പറയുന്നു. ഈ അഭിപ്രായം പിൽക്കാലത്തു
വിമുച്യതേ. ജഗത്ത്വമഹമിത്യാദിസർഗാത്മാ ദൃശ്യമുച്യതേ 48 മനസൈവേന്ദ്രജാലശ്രീർജഗതി
പ്രകൃതൈർജാതഃ പുനസ്തത്രൈവ ലീയതേ സ്വം സ്വം നിമിത്തമാസാദ്യ ശാന്താദ്ഭാവഃ പ്രവർതതേ
പ്രപഞ്ചത്തിൽ വ്യാപകമായി നടക്കുന്നുണ്ടെന്നു കരുതേണ്ടിവരും. ഇങ്ങനെയുള്ള ചില
യാത്രവഴങ്ങൽ തിരിച്ചുവിടുക വനമാല/ഒരു യാത്രവഴങ്ങൽ രണ്ടു മംഗളാശംസകൾ (കുമാരനാശാൻ)
മുനിവരനുടെ പൂർവവാർത്തയേവം കനിവൊടു കേട്ടൊരു താടകാകൃതാന്തൻ നിശയെ നിമിഷമാത്രയായ്
വർഗ്ഗം:ഭാഷാഭൂഷണം ഭാഷാഭൂഷണം/പേജ് 10 ഭാഷാഭൂഷണം അലങ്കാരശാസ്ത്രം എ.ആർ. രാജരാജവർമ്മ
51 സാധൂകരിച്ചവ */ 796 കണക്കു പറഞ്ഞാൽ കഞ്ഞിക്കു പറ്റില്ല- 797 കണക്കു വിട്ടാൽ
തെറ്റുതിരുത്തൽ വായന കഴിഞ്ഞവ */ ഗൃഹ്യാഭ്യസനം ൧൯ നാൽ സന്മാർഗ്ഗത്തിനാധാരം സ്ത്രീ
18. 2 വാഗേവ ബ്രഹ്മണശ്ചതുർഥഃ പാദഃ സോഽഗ്നിനാ ജ്യോതിഷാ ഭാതി ച തപതി ച ഭാതി ച തപതി ച
പത്രവാർത്തകൾ പറയുന്നു. ജെ.സി. ഡാനിയേലും സിനിമകാണാനെത്തിയ ചില മാന്യന്മാരും
ഉണ്ടായതെങ്ങനെ?/കുടുംബിനിയോ പൗരയോ? കുടുംബിനിയോ പൗരയോ? ഉപയോക്താവ്: മണിലാൽ ഉ: അനിവർ
ക്രിസ്ത്യരാജപുത്രിയായ ബെർതാ എന്നവളെ വിവാഹം ചെയ്തു. അവൾ വരുമ്പോൾ ചില
കണ്ഠബിലാവധി 36 ശനൈഃ ശനൈർമസ്തകാച്ച മഹാവജ്രകപാടഭിത്. പൂർവം ബീജയുതാ വിദ്യാ
സത്ത്വം ആസ്ഥായ കേവലം 26 വിമുക്തഃ സർവപാപേഭ്യഃ സർവം ത്യജതി നിഷ്കലഃ ക്ഷേത്രജ്ഞ ഇതി
ജീവിച്ചിരുന്ന അശ്വതിതിരുനാൾ തമ്പുരാട്ടി. സ്ത്രീകൾ മൂപ്പുവാണ സ്വരൂപമെന്ന പേരിൽ -
ബൂർഷ്വാ സ്വത്തിന്റെ നിലനില്പിനെ അപകടത്തിലാക്കുന്നു. ബൂർഷ്വാ സമൂഹത്തിലെ ബന്ധങ്ങൾ
കൊള്ളേണ്ടതാണ്. ഇങ്ങനെ മൂന്നു ശരീരങ്ങളും മൂന്നവസ്ഥകളും ഞാനല്ലെന്നാകുമ്പോൾ 'ഞാൻ'
കൊടുക്കുന്നപ്രകാരം- 525 ഉറക്കത്തിൽ കാലുപിടിച്ച പോലെ- 526 ഉറക്കത്തിൽ പണിക്കത്വം
മാറിമാറിവരും. 36 ദ്രേക്കാണങ്ങൾ കഴിയുമ്പോൾ 360 ദിവസമാകും. പിന്നീട് 'എണ്ണപ്പെടാത്ത'
അരുൾചെയ്തു: ഒരു പുരുഷൻ സാക്ഷി നിൽക്കുന്നേടത്ത് രണ്ട് സ്ത്രീകൾ സാക്ഷി നില്ക്കണം.