ജീവിതത്തിന്റെ എല്ലാ തുറയിലുമുള്ളവരെ താൾ:പ്രപഞ്ചവും മനുഷ്യനും. 187 തെറ്റുതിരുത്തൽ
പറഞ്ഞിട്ട് ആ ഈർക്കിൽകൊണ്ട് ആ എലികളെയെലാം ഒരോന്ന് അടിചു. ഉടനെ എലികളെല്ലാം
കവർന്നു രക്ഷാകരൻ 5. പാപിയിൽ പ്രധാനിയായിരുന്ന എന്നെ രക്ഷിപ്പാൻ ശാപമ്രുത്യു
വികസിതാ ഇവ രാജഹംസൈഃ 123 ത്രിവിധം ഹ്യക്ഷരം കാര്യം കവിഭിർനാടകാശ്രയം ഹ്രസ്വം ദീർഘം
ശ്ലോ 74 ആനന്ദവല്ലി പടരും ജ്ഞാനമരം ഞാൻ കുറിച്ചിടും ജ്ഞേയം മൗനത്തേൻകനി ചൊരിയും
ഒന്നോടൊന്നു സംബന്ധമില്ലാത്തവയുമാണെന്നുള്ള പ്രതീതി ബലപ്പെടുന്നു. ഇവിടെ അംഗിയായ രസം
തന്മൂലം വസ്തുക്കളുടെ ഗുരുത്വാകർഷണദ്രവ്യമാനവും പ്രവേഗത്തോടൊപ്പം
വർഗ്ഗം:താളുകൾ - 1868 താൾ: 15 2014 താൾ: 1868. 284 2014 വർഗ്ഗം:താളുകൾ - 1868 താൾ:
സുഖശ്രാവ്യതരം ഭവേത് പ്രേക്ഷാഗൃഹാണാം സർവേഷാം ത്രിപ്രകാരോ വിധിഃ സ്മൃതഃ
പ്രതിഗ്രഹം സ്വാഹാ 2 ഏകത്രിംശോഽനുവാകഃ. അഗ്നിശ്ച മാ മന്യുശ്ച മന്യുപതയശ്ച
ഉപയോഗിക്കണം എന്ന് കരുതിയല്ല ലിങ്ക് കൊടുത്തത്. ആലപിക്കുന്നത് കേൾക്കുമ്പോൾ കൂടുതൽ
അല്ലെങ്കിൽ മുഹമ്മദിന്റെ നമസ്കാരം ഇദ്ദേഹം നിർവ്വഹിച്ചു. (ബുഖാരി. 1. 12. 753)
ഗുരു/അദ്ധ്യായം പതിനൊന്ന് കുമാരനാശാൻ അദ്ധ്യായം പതിനൊന്ന് അദ്ധ്യായം പത്ത് അദ്ധ്യായം
എന്നു കല്പിച്ചു ചോദിച്ചു. വിചാരിപ്പുകാരൻ: ചിലത് അങ്ങനെയിരിക്കും അത് അവയുടെ
പറഞ്ഞിരിക്കുന്നു. എന്നാൽ ഇതരഭാഷകളിലേപ്പോലെയല്ലാതെ ഇതിൽ ലിംഗങ്ങൾ വേറെ പ്രകാരത്തിൽ
ഇരുപത്തിരണ്ട് അദ്ധ്യായം ഇരുപത്തിനാല്‌ അദ്ധ്യായം ഇരുപത്തിനാല്‌ വർഗ്ഗം:ധർമ്മരാജാ
സ്നിഗ്ദ്ധസംഗീതലോലം ലളിതചികുരജാലം ചൗര്യചാതുര്യലീലം ശതമഖരിൗപുകാലം ശാതകുംഭാഭചേലം
മേല്പത്തൂർ നാരായണഭട്ടതിരി ദശകം നാൽപ്പത്തിയാറ് ദശകം നാൽപ്പത്തിയഞ്ച് ദശകം
ആത്മാർത്ഥതയിൽനിന്നുള്ള അതിന്റെ ആവിർഭാവം അകൃത്രിമത്വത്തിന്റെ പരിവേഷത്താൻ
കണ്ടുപിടിച്ചിട്ടുണ്ടു്. സമുദ്രത്തിന്റെ അടിയിൽ ചെന്നു് ഈവക ജന്തുക്കളുടെ കാഴ്ച
ആത്മദോഷാത് സമുത്പന്നം ശോചിതും നാർഹസേ നൃപ ന ഹി രക്ഷന്തി രാജാനഃ സർവാർഥാൻ നാപി
പന്തളം കേരളവർമ്മ വർഗ്ഗം:പന്തളം കേരളവർമ്മയുടെ കൃതികൾ കളിക്കാൻ ആരുമില്ല
ടാതിഥ്യമാധുര്യം ഞാൻ കൈക്കൊണ്ടേൻ, ആധി ബാധിച്ചിന്നു കുതുകം പൂണ്ടേനേറ്റം
വിരക്തോ സ്മ്യഖിലനൃപസുഖേ ത്വത്പ്രസാദൈകകാങ്ക്ഷീ ഹാ ദേവേതി സ്തുവന്തം വരവിതതിഷു തം
കടമറ്റത്ത് കത്തനാർ കടമറ്റത്ത് കത്തനാർ എന്നു പ്രസിദ്ധനായിത്തീരുകയും ചെയ്തു.
അതിലൊട്ടും മെച്ചം നേടാത്തതായ ഈ കവിയുടെ പ്രയത്നംകൊണ്ടു മലയാളഭാഷക്കു വിശേഷവിധിയായി
അശനാപിപാസേ മേ സോമ്യ വിജാനീഹീതി യത്രൈതത്പുരുഷോഽശിശിഷതി നാമാപ ഏവ തദശിതം നയന്തേ
രണ്ടാമത് ആസ്ട്രേലിയയുടെ ഉത്തരഭാഗം അതേ മേഖലയിൽപ്പെട്ട ആഫ്രിക്ക; അമേരിക്ക മുതലായ
0% 4% 6% 0% 4%99% 0% 5%8 0% 4%99% 0% 5% 925825 0. 4. 0. 5.8 0. 4. 0. 0. 4. 4. 0.
ചേർത്തു. അനസ്(റ)ന്റെ മാതാവ് ഉമ്മുസുലൈം അബ്ദുല്ലയുടെയും മാതാവായിരുന്നു. അവർ
ചെയ്യുന്നില്ലെന്നുള്ളതും സംഭാവ്യമായി വരാം. ഇത് ഒരു വൃത്തരേഖക്കുള്ളിൽ ഒരു
വർഗ്ഗം:എഴുത്തുകാർ_മരണവർഷം_അനുസരിച്ച് വർഗ്ഗം:1893-ൽ മരിച്ചവർ
സർവ്വഗുണസമ്പന്നവുമാണീഗ്രന്ഥം! എഴുത്തച്ഛന്റേതല്ലാത്ത പല ഗ്രന്ഥങ്ങളുടേയും
ഹിരണ്യഗർഭം പശ്യത ജായമാനം സ നോ ദേവഃ ശുഭയാസ്മൃത്യാ സംയുനക്തു 12 യസ്മാത്പരം
ൗ മേല്പത്തൂർ നാരായണഭട്ടതിരി ദശകം നാൽപ്പത്തിയൊന്ന് ദശകം നാൽപ്പത് ദശകം നാൽപ്പത്
പരിസ്ഥിതി ദുർബല പ്രദേശം/മേഖല എന്നിങ്ങനെ പല പദപ്രയോഗങ്ങൾ കഴിഞ്ഞ കുറേ വർഷങ്ങളായി ഈ
001123. 2015- 077164. 2015/12 2015- 12! 2015/13 2015-13 2015- 13 2015/13 1.25/ 22
ഭൂമിശാസ്ത്രം ഭൂപടങ്ങൾ പ്രമാണം: 1936 33. വർഗ്ഗം:തിരുവിതാംകൂർ ഭൂമിശാസ്ത്രം ഭൂപടങ്ങൾ
ജി.പി. ഇംഗ്ലണ്ടിൽ നിയമപരീക്ഷയ്ക്കു പഠിച്ചുകൊണ്ടിരുന്നപ്പോൾതന്നെ തന്റെ
വിജ്ഞാനമയകോശഃ സ്യാത്പുംസഃ സംസാരകാരണം 184 അനുവ്രജച്ചിത്പ്രതിബിംബശക്തിഃ
കർഷകത്തൊഴിലാളിയുംകൂടിയായിരുന്നു. തിരുവിതാംകൂറിൽ ആദ്യം നിർമ്മിച്ച ചിത്രമായ
മാർത്താണ്ഡവർമ്മ (നോവൽസി.വി. രാമൻപിള്ളയുടെ 1891-ൽ പ്രസിദ്ധീകരിച്ച ഒരു മലയാള
അനുകൂലം രാജേഷ്‌ ഒടയഞ്ചാൽ) 06:29, 9 മേയ് 2011 ( അനുകൂലം ഉപയോക്താവ്: 06:36, 9 മേയ്
ആ ദിവസം അദ്ദേഹം വരുമ്പോഴേക്കും മൂക്കോല ക്ഷേത്രത്തിൽ ചെന്നു ദേവീദർശനവും
മണിപ്രവാളകൃതികൾ വർഗ്ഗം:അജ്ഞാതകർത്തൃകങ്ങൾ വർഗ്ഗം:അപൂർണ്ണകൃതികൾ
നോമ്പനുഷ്ടിക്കുകയും ധനത്തിനു സകാത്തുകൊടുക്കുകയും ഭരണകർത്താക്കളെ അനുസരിക്കുകയും
റസൂൽ(സ) അരുൾ ചെയ്തു: നിങ്ങളാരെങ്കിലും പള്ളിയിൽവെച്ച്നമസ്കാരം
മൂലം/ആദിപർവം/അധ്യായം3" / എന്ന ഉപയോക്താവ് ആദിപർവം/അധ്യായം3 എന്ന താൾ മഹാഭാരതം
മുതൽക്കേ ഈ പ്രക്രിയകൾക്ക്‌ ആരംഭം കുറിച്ചിരിക്കാം. പന്നൽവർഗത്തിൽപ്പെട്ട ചെടികൾ,
തലത്തിൽ നടത്തുന്നതാണ്‌ ഉചിതം. ഈ കാഴ്‌ചപ്പാടിന്റെ അടിസ്ഥാനത്തിൽ പശ്ചിമഘട്ടത്തിലെ
പര്യാവർതയാദ്ബഹവോ വൈ തേ ഭവിഷ്യന്തീത്യധിദൈവതം 1. 5. 2 അഥാധ്യാത്മം യ ഏവായം മുഖ്യഃ
യോഗ്യന്മാരുംകൂടി ആലോചിച്ച് ഇവിടെ വേദാർഹന്മാരായ ബ്രാഹ്മണരുടെ ശാന്തി വേണ്ടെന്നു
മുമ്പിനേക്കാൾ വല്ലാതെ ചമയുന്നു. ൨൭ ഇവ പറയുമ്പോൾ, പുരുഷാരത്തിൽ ഒരു സ്ത്രീ ശബ്ദം
മുതിർന്നവരുടെ കാഴ്‌ചപ്പാടിൽ താൾ: 228 താൾ: 229 താൾ: 230 താൾ: 231 താൾ: 232 താൾ: 233
കല്ലൂർനമ്പൂരിപ്പാടന്മാർ സകുടുംബം ചെങ്ങണംകുന്നത്ത് പാർത്തിരുന്ന കാലത്ത്
തെറ്റുതിരുത്തൽ വായന കഴിഞ്ഞവ */ താൾ: താൾ: 14 തെറ്റുതിരുത്തൽ വായന കഴിഞ്ഞവ */ താൾ:
നിനച്ചുകൊള്ളുവിൻ. ശ്ലോ യുഗ്മകം) 40 വളർന്നീർമുകിലിന്റെ നന്മദം കളയും
ന സംബധ്യതേ ക്വചിത് 464 കിം മരുന്മൃഗതൃഷ്ണാംബുപൂരേണാദ്രർത്വമൃച്ഛതി
തെളിഞ്ഞിട്ടുണ്ട്. കാര്യസിദ്ധിയിൽ അവർക്ക് വിശ്വാസമുണ്ടെന്നുതോന്നുന്നു. രാജാവ്:
സംസേവതേ പിതൃഗണപ്രവരോ ഋയമായം തം ത്വാം ഭജാമി ഭഗവൻ പരചിന്മയാത്മൻ 21.7 കിം ചോത്തരേഷു
 തസ്മാദ് യത്നാത് പ്രതീക്ഷന്തേ കാലസ്യോദയം ആഗതം ന ഹി തേ നാശം ഋച്ഛേയുർ ഇതി പശ്യാമ്യ്
രുദ്ധാലാപാഃ കഥമപി പുനർഗദ്ഗദാം വാചമൂചുഃ സൗജന്യാദീന്നിജപരഭിദാമപ്യലം വിസ്മരന്ത്യഃ
നിരോധിച്ചു. അപ്രകാരം പള്ളിയിൽ കളഞ്ഞുപോയ സാധനം അന്വേഷിക്കുന്നതും
അനന്തരവനെ വിദ്യാഭ്യാസം ചെയ്യിച്ച കുരുക്കളെ വരുത്തി യഥായോഗ്യം ഗുരുദക്ഷിണ