പാതുകാം- ഏതാം പാലയ ഹന്ത മേ വിവശതാം സംപൃച്ഛ ദേവാനിമാൻ
 പരാംഗ്മുഖസ്തു കർതവ്യോ യാനേ നൃണാം പ്രയോക്തൃഭിഃ 38 ത്രിപതാകേ യദാ ഹസ്തേ ഭവേത് പൃഷ്ഠ
വിരാജമാനേ മഞ്ചകേ ശിവേന സാർദ്ധം മുദാ അതിരമസി. അഥ ക്ഷണം മാം സ്മരന്തീ സുഖശയനം കുരു.
തോട്ടവിളകളിൽ തേയില, കാപ്പി, റബ്ബർ, കശുവണ്ടി, മരിച്ചീനി എന്നിവ ഉൾപ്പെടുന്നു.
ശ്രീരാജൻ യുധിഷ്ഠിരേ 35 താം ദൃഷ്ട്വാ പാണ്ഡുപുത്രസ്യ ശ്രിയം പരമികാം അഹം ശാന്തിം ന
വല്യ തമ്പുരാന്റെ പൂൎവന്മാരായ രണ്ടുമഹാരാജാക്കന്മാരുടെ കാലത്തു (൧൮൬൦ാമാണ്ടുമുതൽ
ഭാഷ്ക്ക് ഈ പ്രകൃതത്തിൽവേണ്ടത്തക്ക ജ്ഞാനസാധനം സിദ്ധമായിട്ടുള്ള സ്ഥിതിക്ക്
എങ്ങിനെ ഇരുന്നു എന്നു ഞാൻ ചോദിച്ചു. ഭയങ്കരമായ വേദനയുണ്ടായിരുന്നു എന്ന് അയാൾ
സോദര! ലക്ഷ്മണ! ക്രൂരതയുള്ള ജനങ്ങളോടൊത്തുനീ പാരം പരിഹാസമായിപ്പറഞ്ഞതു? ഭീരുവായുള്ള
രാജ്യത്ത്‌ സംഭവിക്കുന്ന പ്രകൃതിക്ഷോഭങ്ങളും ശിശുമരണങ്ങളും (പ്രത്യേകിച്ച്‌ അച്ഛനും
രംഗത്ത്‌ കടന്നുവന്നിട്ടുണ്ട്‌. കേന്ദ്രപരിസ്ഥിതി-വനം മന്ത്രാലയം 2000ൽ നിയോഗിച്ച
 അഴിമതികൾക്കെല്ലാം ശേഷയ്യൻ നല്ല അമർച്ച വരുത്തി.ശേഷയ്യൻ കചേരിയ്ക്കു ശരിയ്ക്കു
ട്ടറിഞ്ഞു തന്നുടെ മകൻ വരവെന്നു വിരഞ്ഞു സംഭ്രാന്തമനസ്കനായ് താതൻ പറഞ്ഞാനെന്നോടു
 താൾ: 1772. 138 വർഗ്ഗം:താളുകൾ - 1772 താൾ: 1902. 175 തെറ്റുതിരുത്തൽ വായന കഴിഞ്ഞവ
65) ഇബ്നു ഉമർ(റ)നിവേദനം: ജനങ്ങൾ നമസ്കാരത്തിന് പുറപ്പെടുന്നതിനു മുമ്പ് തന്നെ
കിട്ടുവാനുണ്ടല്ലൊ എന്നു വിചാരിച്ചു നമ്മൾ വല്ല ഏൎപ്പാടും കരുതി ഇരിക്കുകയും
തെന്നലിലാഞ്ഞുലയുമമ്മുടി ചിന്നും ഫാലശ്രീ, എന്നല്ലാ, പേർത്തും ചിമ്മിയ കൺകളും
എനിക്ക് തന്ന് തീർക്കേണ്ട കടബാധ്യത നബി(സ)ക്ക് ഉണ്ടായിരുന്നു. നബി(സ) കടം വീട്ടുകയും
അക്രമങ്ങൾക്ക് അർഹരാകത്തക്കവിധം അവർ യാതൊന്നുംതന്നെ ചെയ്തിട്ടില്ലെന്നു പറയാൻ
ചെയ്യപ്പെടുന്നവ തന്നെ എന്നും എന്നാൽ നാം അവയെ ബോധത്തോടുകൂടാതെ ചെയ്യുന്നു എന്നും
തയ്യാറാക്കണം. വളരെ ഉയർന്ന പ്രദേശത്തുള്ള ജലാശയങ്ങളും ജലസ്രോതസ്സുകളും സംരക്ഷിക്കണം.
മനുഷ്യരുടെയും കൈകൊണ്ടു നിണക്കു നാശം ഭവിക്കട്ടെ. ' താൾ: 5 1906. 26 തെറ്റുതിരുത്തൽ
മാസ്റ്റർ പ്ലാൻ 17. പരിസ്ഥിതിദുർബല മേഖലയുടെ മാറ്റവും ഭേദഗതിയും 18. പശ്ചിമഘട്ട
ഭൂത-വർത്തമാനകാലാവസ്ഥകളെക്കുറിച്ചു പഠിക്കാൻ താത്പര്യം കാണിക്കുന്നു.
താളുകൾ 1 മുതൽ 77 വരെ) 1903. 1903. 1903. 1903. 1903. 1903. 1903. 1903. 1903. 1903.
ക്രിസ്ത്യന്മാരാകാത്തതുകൊണ്ട് അന്യായചട്ടങ്ങളെ ഏർപ്പെടുത്തി. അവരെ ദണ്ഡനം ചെയ്തു.
അർഹിക്കുന്നത്. പദ്ധതി ഏകോപനം മനോജ്.കെ സാങ്കേതികവിദ്യാ രൂപകല്പന,സാക്ഷാത്കാരം
കൊടുക്കുന്നു. കുട്ടികൾ കൃഷ്ണാർജ്ജുനന്മാരുടെ കൂടെ ഭൂമിയിലേക്ക്‌ പോകാൻ
ബോദ്ധ്യമുണ്ട്.ആസ്ഥിതി മനസ്സിന്നുകൂടി ആഗോചരവും അനിർവചനീയവുമാകുന്നു.
ഈ ശാസ്ത്രപരിചയം കൊണ്ട്തന്നെ യന്ത്രനിർമ്മാണദ്വാരാ ഗുരുതമങ്ങളായ ഭാരങ്ങളെ
വസ്തുക്കളുംകൂടി വേണമെങ്കിൽ എടുത്തുകൊള്ളാം. കല്പിച്ചു യുദ്ധത്തിൽ ജയിച്ചു
തദാഭ്യേത്യ പിതുസ് തച് ഛോകകാരണം 66 തസ്മൈ സ കുരുമുഖ്യായ യഥാവത് പരിപൃച്ഛതേ വരം ശശംസ
വിശ്വസിച്ച് അദ്ദേഹം പറഞ്ഞുകൊടുത്തതുപോലെയെല്ലാം ചെയ്യുകയും സംഗതിയെല്ലാം
വർഷങ്ങളിൽ അദ്ദഹം പഠിക്കുകയും പരീക്ഷണ വിധേയമാക്കുകയും പുതിയ തത്വങ്ങൾ
വിചാരിച്ചു കിളിരൂർ ദേശക്കാർക്കു സഹിക്കവയ്യാത്ത ലജ്ജയും വ്യസനവുമുണ്ടായി. അവർ
പാഠപുസ്തകം 1926 1926 മലയാള മൂന്നാം പാഠപുസ്തകം 1926 മലയാള മൂന്നാം പാഠപുസ്തകം 1926"
ച ഗൗഃ ശേഷാണാം ഭോജനം കാര്യം സ്ഥാപനേ കർതൃസംശ്രയം 58 മന്ത്രപൂതം ച തദ്ദേയം
സത്തിന്റെ ലക്ഷണം. അതു പ്രപഞ്ചത്തിൽ സമന്വയിക്കുന്നില്ല. പ്രപഞ്ചം
അശ്വമേധം ദശഗുണം പ്രവദന്തി മനീഷിണഃ 5 ഗംഗായാസ് ത്വ് അപരം ദ്വീപം പ്രാപ്യ യഃ സ്നാതി
ഡോട്ട് നെറ്റ് അടിസ്ഥാനമാക്കി പ്രവർത്തിക്കുന്ന ലളിതമായ ഒരു യന്ത്രചട്ടക്കൂടാണ്
വിഷയാശാമഹാപാശാദ്യോ വിമുക്തഃ സുദുസ്ത്യജാത് സ ഏവ കൽപതേ മുക്ത്യൈ നാന്യഃ
കൂടല്ലൂർ നമ്പൂരിപ്പാടു വന്നു ഭാഗവതപാരായണം തുടങ്ങിയിരിക്കുന്നു എന്നറിഞ്ഞാൽ
1927. 16 മുമ്പിൽച്ചൊല്ലിയൊരക്ഷരങ്ങളഖിലം മൂന്നിൽ കിഴിച്ചിട്ടുടൻ ശേഷിച്ചൊന്നു
ചെല്ലണം. അവിടെ ബി 2014 വർഗ്ഗം:താളുകൾ - 1915 താൾ: 1868. 643 991 പിന്നെ അവൻ എന്നോടു
നിയന്ത്രണങ്ങൾ ഏർ പ്പെടുത്തുക. ഒരു പ്രദേശത്തിന്‌ താങ്ങാവുന്ന ശേഷിയുടെയും
പ്രാപ്തായാർഹാം ചകാര സ ഹ പ്രാതഃ സഭാഗ ഉദേയായ തം ഹോവാച മാനുഷസ്യ ഭഗവൻഗൗതമ വിത്തസ്യ
രസാനാം പയസൈവ ച അമരത്വം സുരാ ജഗ്മുഃ കാഞ്ചനസ്യ ച നിഃസ്രവാത് 27 അഥ തസ്യ സമുദ്രസ്യ
കിഞ്ചിച്ഛക്തി മുതലായ ദോഷങ്ങൾ ഉള്ളവ നാകയാൽ യഹോവ ഈശ്വരത്വം ഉള്ളവനല്ല പാപിഷ്ഠൻ
ഇതുപോലെ വർണ്ണനകളിൽ ഒരേ ഗുണക്രിയകളെ ആവർത്തിക്കേണ്ടിവന്നാൽ പരാവർത്തനഭംഗികൊണ്ടു
ധർമമധർമം വാ ശുദ്ധം വാശുദ്ധമണ്വപി 13 യത്ര കാലമകാലം വാ നിശ്ചയഃ സംശയോ ന ഹി. യത്ര
സാധാരണ ജന ങ്ങളുടെ വിശ്വാസം. എന്നാൽ ഈ ഉപന്യാസത്തിൽ പറയപ്പെട്ടിട്ടുള്ള മിക്ക
പരമ്പരയിലാണ് ഇതു ഭൂമിയാണ് എന്ന നാടകത്തിന്റെയും സ്ഥാനം. സ്ത്രീവിദ്യാഭ്യാസമാണ് ഈ
പറയുന്നതിനു സർവഥാ യോഗ്യനുമായ പ്രൊഫസർ ബോപ്പു് എന്ന മഹാൻ
 വ്യഷ്ടിരേഷാസ്യ വിശ്വസ്യ ഭവതി സ്ഥൂലവിഗ്രഹഃ ഉച്ച്യതേ ന്നവികാരിത്വാത്കോശോ ന്നമയ
ചെയ്യാതെ മറ്റുള്ളവർ കഴിച്ചുകൂട്ടുകയും ചെയ്യുമ്പോൾ അവർ ആദ്യം അവിഭക്തമായിരുന്ന ഒരു
നിശ്ചയിക്കേണ്ടിയിരിക്കുന്നു. കയ്യിൽ വാങ്ങിയവർ എന്നു പറയപ്പെടുന്നവരായ ജന്മി
50ബിന്ദു 400 തീരുമാനം: മലയാളം വിക്കിഗ്രന്ഥശാല സമൂഹത്തിന്റെ തീരുമാനം അനുസരിച്ച്
സ്നേഹത്തിൻ ഇടയനാം യേശുവേ 1.സ്നേഹത്തിൻ ഇടയനാം യേശുവേ വഴിയും സത്യവും താൾ
ഞാൻ ഭക്ഷിക്കപ്പെടുന്നവനും പാനം ചെയ്യപ്പെടുന്നവനുമായി രാത്രി കഴിച്ചുകൂട്ടുന്നു.
സമരങ്ങളും ഉ: ടി.കെ സുജിത് ഉ: അനിവർ 12 കുലസ്ത്രീയും' 'ചന്തപ്പെണ്ണും'
അടയാളപ്പെടുത്തും. ഇതും കാണുക ഈ അവകാശമുള്ള [ 0% 4% 0% 5%8 0% 4% 0% 0% 4% 4% 0% 5%8
ആരും മനുഷ്യർ വിഷയമായി പ്രശംസിക്കരുതു; സകലവും അല്ലൊ നിങ്ങൾക്ക് ഉള്ളതു. പൌൽ ആകട്ടെ,
വിടുന്നു എന്നുവരികിൽ നാമെന്തുചെയ്യും. കമന്നു വീണു മുഖം ഭൂമിയിൽ തല്ലിയിട്ടും
ഉപനിഷത്തുകൾ/പാശുപതബ്രഹ്മോപനിഷദ് പാശുപതബ്രഹ്മോപനിഷത് താൾ സൃഷ്ടിച്ചിരിക്കുന്നു