പൂർണം വ്യാപകം ചൈതന്യമനന്തമിത്യുച്യതേ. ആനന്ദം നാമ സുഖചൈതന്യസ്വരൂപോഽപരിമിതാനന്ദ
കുതിച്ചിതേ. കട്ടി-ശ്ലോ 10 ചുവടോടു കൂടെയിളകിത്തരുക്കള- ങ്ങവനോടുകൂടെ നടകൊണ്ടു
ഭാഗത്തു ഒരു മനുഷ്യൻ നിൽക്കുന്നതു കണ്ടു. നബി(സ) അദ്ദേഹത്തെക്കുറിച്ച് അന്വേഷിച്ചു.
താൾ:കോമപ്പൻ. 14 തെറ്റുതിരുത്തൽ വായന നടന്നിട്ടില്ലാത്തവ */ താൾ:ശ്രീമൂലരാജവിജയം. 11
ചുറ്റിയിടക്കെട്ടു- കെട്ടിമുറുക്കിനാൻ യുദ്ധസന്നദ്ധനായ് കൂർത്തുമൂർത്തുള്ള ശരങ്ങൾ
പിൽക്കാലത്ത് വേണ്ട പ്രാധാന്യം ലഭിക്കാതെപോയ ഈ പാരമ്പര്യത്തെ സംരക്ഷിക്കുന്നതിന്
പദ്ധതിയിലും പരിഷ്കൃതദശയിലും എത്തീട്ടുള്ള ജാതിക്കാരെക്കൊണ്ടു ഗുണവും
പ്രജാപതിർവിശ്വസൃഡ്ഢിരണ്യഗർഭഃ സത്യം പ്രാണോ ഹംസഃ ശാന്തോ വിഷ്ണുർനാരായണോഽർകഃ സവിതാ
ഇഹാത്മജാഃ 44 ഭൂയസ തതൊ ദശഗുണാഃ സഹസ്രജ്യൊതിഷഃ സുതാഃ തേഭ്യൊ ഽയം കുരുവംശശ ച യദൂനാം
നാശം. അല്ലാഹു സത്യം. അതു ഇബ്നുഉമർ(റ) ആണ്. അങ്ങനെ അദ്ദേഹം ഇബ്നു ഉമർ(റ)ന്റെ
ഇവിടത്തെ ചരിത്രസ്മാരകങ്ങളിലൂടെയായിരുന്നു - മറ്റൊരു കാലത്തെ, മറ്റു ജീവിതങ്ങളെ
ഭാഗം ആർ. വി. നായർ വേലായുധ വിലാസം ഇരണിയൽ 1930 2014 2014 വർഗ്ഗം: 2014 013 താൾ:
നടക്കുമമ്പൊടു ഞാനുമെന്നുടെ പാർത്ഥനും' എന്നു കൂടി ഞാൻ പറയാൻ വിചാരിക്കുന്നു.
പത്തായം 44 പത്തായം 44 44 പത്തായം 45 പത്തായം 45 45 പത്തായം 46 പത്തായം 46 46
സമമാക്കിപ്പിന്നെ ഭരതൻ പോകുമ്പോൾ വഴിക്കിരിപ്പാനായ് അരമനകളും ചമച്ചാരിങ്ങിനെ മരതകമണി
സമ്പാദിക്കേണ്ടിയിരുന്നതിനാ,ഓരോ വഴിക്കും ന്യൂതനമായ പരിശ്രമങ്ങൾ ഏർപ്പെട്ടു തുടങ്ങി.
തെറ്റുതിരുത്തൽ വായന കഴിഞ്ഞവ */ ഗ്ലൂക്കോസിൽ ഇത്രയധികം ഊർജം എവിടെനിന്നു വന്നു എന്ന
ചേർക്കുമ്പോൾ സമയം തിയ്യതി എന്നിവ രേഖപ്പെടുത്തും. പക്ഷേ ഒപ്പില്ലാതെ ആയിരിക്കും ഇവ
വികാസത്തെയാണ്. മുതലാളിത്തത്തിനെതിരായ പോരാട്ടത്തിന്റെ ഗതിവിഗതികളിൽനിന്നും- സമരം
വീണ്ടും ക്രമീകരിക്കാതെ ഉപയോഗിക്കാൻ സഹായിക്കുന്നു. ഈ രണ്ടു ഫലകങ്ങളും ഒപ്പിനൊടുവിൽ
വളരെ പഴക്കമുള്ള ക്ഷേത്രകലയായ കൂടിയാട്ടത്തിൽ സ്ത്രീക്ക് സവിശേഷമായ ഒരിടം
തെറ്റുതിരുത്തൽ വായന നടന്നിട്ടില്ലാത്തവ */ താൾ: 71 തെറ്റുതിരുത്തൽ വായന
വിനതയ്ക്കു നൽകിനാൻ അത്തരം ഹേതുവായ്ക്കൊമ്പൊടിഞ്ഞുള്ളതും സിദ്ധമുനികളാൽ ചുറ്റും
04/01/2014 2014/01/08 08/01/2014 2014%2 01%2 08 1 മലയാളം കൃതികളുടെ ടൈപ്പിംഗ്
ജപിക്കയുമില്ല. ക്ഷത്രിയരാ 2014 വർഗ്ഗം:താളുകൾ - 1915 താൾ: 1772. 84 വർഗ്ഗം:താളുകൾ -
വിക്കിഗ്രന്ഥശാല:എന്താണ്‌ വിക്കിഗ്രന്ഥശാല? ഫലകം: ഫലകം: എന്നതിൽ നിന്ന് ഒരു പതിപ്പ്
സ്വർഗ്ഗവുമായിരിക്കും. നുഹ് തന്റെ സമുദായത്തെ ഇവനെ സംബന്ധിച്ച് താക്കീത് ചെയ്തതുപോലെ
മാത്രമാകുന്നു. വെറും വാക്കുകളെ ആശ്രയിച്ച് ജീവിപ്പാൻ അവരോടു പറയുന്നു. അവർക്കതു
ഗാന്ധാരീം ദേവീം പതിം അനുവ്രതാം സ്നുഷാഭിഃ സംവൃതാം ശശ്വത് താരാഭിർ ഇവ രോഹിണീം 28
അല്ലെങ്കിൽ വരമൊഴി എന്ന് ഒരു വ്യത്യാസം എല്ലാ ജീവൽഭാഷകളിലും ഉള്ളതു പോലെ ഈ തമിഴിലും
മരണമേ! വരിക വരിക മരണമേ! എന്റെ ദേവിയോട് എന്റെ ദേവിയോട് വർഗ്ഗം:മയൂഖമാല
അധ്യായം63 മഹാഭാരതം മൂലം/അശ്വമേധികപർവം/അധ്യായം63 വ്യാസൻ അധ്യായം63 അധ്യായം62
ജനഗണമന 12 12 ജനഗണമന രബീന്ദ്രനാഥ് ടാഗോർ 1911 ഇന്ത്യയുടെ ദേശീയ ഗാനം ജനഗണമന സംഗീതം
ഭോക്താത്ര ജീവഃ ഖഗഃ 145 അജ്ഞാനമൂലോ യമനാത്മബന്ധോ നൈസർഗികോ നാദിരനന്ത ഈരിതഃ
തിരിക്കാം. 'വനദേവത' എന്നകൃതിയിൽ ഈ രണ്ടു സ്വഭാവങ്ങളും ഇടകലർന്നിട്ടുണ്ടെങ്കിലും,
എങ്ങനെയാണെന്നു പരമാർത്ഥമായി നിങ്ങളോടു ഞാൻ ചോദിക്കുന്നു. അക്ബർ. 6എ) ശിശു മതാവിനോടു
മേറ്റാടലൊട്ടുടലിനാർന്നു നടന്നിടുമ്പോൾ കാറ്റാലുലഞ്ഞൊരിലയാം വിരലാൽ, തളർച്ച- യാറ്റാൻ
1906. 51 തെറ്റുതിരുത്തൽ വായന നടന്നിട്ടില്ലാത്തവ */ ൪൨)
തെറ്റുതിരുത്തൽ വായന നടന്നിട്ടില്ലാത്തവ */ താൾ:സഞ്‌ജയന്റെ കവിതകൾ. താൾ:ഉമാകേരളം.
പുരത്തിലെപ്പൊഴും ജനകോലാഹലം ശ്രവിപ്പാനുമില്ല ജയജയഘോഷമൊരേടത്തുമില്ല
യദ്വപുഃ. ദ്രഷ്ടൃദർശനദൃശ്യാദിവർജിതം തദിദം പദം 48 ദേശാദ്ദേശം ഗതേ ചിത്തേ മധ്യേ
അത്രമാത്രം ഭയമുണ്ടായിരുന്നു. ഏതെങ്കിലും പേടിച്ചതിനോടുകൂടി ഇച്ചക്കൻ നമ്പ്യാരെ
പ്രശ്‌നങ്ങളുമായി ബന്ധപ്പെട്ട്‌ പാസാക്കിയ പ്രമേയ ബോക്സ് 2 : ബി.ആർ.ടി മലയിലെ സോളിഗാ
കയ്യു നീട്ടി ജീവവൃക്ഷത്തിന്റെ കനിയെയും പറിച്ചു ഭക്ഷിച്ചു സദാകാലവും
മനസ്സിലാക്കുവാൻ വളരെ പ്രയാസമുള്ളതല്ല. രഞ്ജിനിയുടെ വളർച്ചയുടേയോ തളർച്ചയുടേയോ
തലച്ചോറിലേക്ക് ഉയർത്തി. ചുറ്റുമുള്ള ഭൗതികപ്രപഞ്ചത്തെ പ്രതിഫ
ഹക്കീം(റ) നിവേദനം: നബി(സ) അരുളി: വാങ്ങുന്നവന്നും വിൽക്കുന്നവന്നും കച്ചവട സ്ഥലത്തു
വെലിച്ചത്തെ കൊണ്ടു സാക്ഷ്യം പറവാൻ തന്നെ.താൻ വെളിച്ചമായിരുന്നില്ല; ൮
കർണാനന്ദത്തിനായിട്ടു് പാടുമാറുണ്ടായിരുന്നു. അതല്ലാതെ വേറെ ഒരുവിധ ഗാനങ്ങളും
(ചട്ടമ്പിസ്വാമികൾ)/പിള്ളത്താലോലിപ്പ് പിള്ളത്താലോലിപ്പ്" / കവിതകൾ
ദ്വാരേഷു സർവേഷു വായുപൂരിതരേചിതഃ. നിഷിദ്ധം തു നവദ്വാരേ ഊർധ്വം പ്രാങ്നിശ്വസംസ്തഥാ
സൃ ഷ്ടിച്ചതെങ്കിൽ, 1ന്ധ5 ക്രിസ്തുമതനിരൂപണം മനുഷ്യരെയും നായ, പുലി, കടുവാ, മുതലായ
ദൃഢീകുർവന്നഹമാദിഷു സന്ത്യജൻ ഉദാസീനതയാ തേഷു തിഷ്ഠേത്സ്ഫുടഘടാദിവത് 382
സ്കന്ദസ്യ സാ സ്മൃതാ ലോഹിതായനിർ ഇത്യ് ഏവം കദംബേ സാ ഹി പൂജ്യതേ 40 പുരുഷേഷു യഥാ
എല്ലവരേക്കാളും ഭാഗ്യവാൻ ഞാനണെന്നുള്ളതിനു വിശേഷിച്ചു ലക്ഷ്യമൊന്നും വേണമെന്നു
വ്യസനം ഉത്തമം കിമാഹാരാഃ കിമാചാരാഃ ക്വ ച വാസോ മഹാത്മനാം 5 കഥം ദ്വാദശ വർഷാണി വനേ
സർവവ്യാപീ ഭവതി. ഹൃദയം നിർമലം കൃത്വാ ചിന്തയിത്വാപ്യനാമയം. അഹമേവ പരം സർവമിതി
ഉത്തമമാണ്. (തിർമിദി) 67) അബൂഹുറയ്റ(റ)യിൽ നിന്ന്: റസൂൽ(സ) പറഞ്ഞു: അല്ലാഹുവിന്റെ
അതുമില്ല. ഇപ്രകാരം ഒന്നെന്നോ വെവ്വേറെ ദൈവമെന്നോ തുല്യമെന്നോ വന്ദ്യമെന്നോ
മുകളിൽനിന്നു തടി താഴെയിറക്കി കയത്തിന്റെ സമീപത്താക്കുന്ന കാര്യം ഏറ്റവും
ആയിരിക്കുന്നവൻ എന്ന ശബ്ദം തോന്നുന്നു എന്നും ആ വാക്കിന് (ആധ്യാഹൃതപദം) നിമിത്തം ആ
വെള്ളം നിറഞ്ഞു. അദ്ദേഹം ഒരു വിധം മനസ്സിനെ സമാധാനപ്പെടുത്തി ഉറപ്പിച്ചുകൊണ്ട്
ഊർജത്തെ മുഴുവൻ എ.ടി.പി.യുടെ രൂപത്തിൽ സംഭരിച്ചുവയ്ക്കുന്നു. സാധാരണഗതിയിൽ
എഴുന്നള്ളുകയുണ്ടായി. ദർശനത്തിനായി നടയിൽ എഴുന്നള്ളിയ സമയം സരസ്വതീദേവിക്ക്