മഥുരാമണ്ഡലേ യസ്തു ജംബൂദ്വീപേ സ്ഥിതോഽപി വാ 2 യോഽർചയേത്പ്രതിമാം മാം ച സ മേ പ്രിയതരോ
2002, 2005 ഖനനപ്രവർത്തന കയറ്റുമതി 50 ദശലക്ഷം കടന്നിരിക്കുന്ന ഇപ്പോൾ ഈ സർവ്വെ
അധ്യായം1 അധ്യായം1 അധ്യായം3 അധ്യായം3 മഹാഭാരതം മൂലം/ഭീഷ്മപർവം/അധ്യായം1 വ്യാസൻ
പ്രമാണേന വക്ഷ്യാമ്യേഷാം വിനിർണയം 16 ചതുഃഷഷ്ടികരാൻകുര്യാദ്ദീർഘത്വേന തു മണ്ഡപം
ചിഹ്നമായിരുന്നു. അല്ലാഹു ഇപ്രകാരം അവതരിപ്പിക്കുന്നതു വരെ(നിശ്ചയം സ്വഫാ-യും
സംവാദം: സംവാദം 17:09, 15 ഏപ്രിൽ 2013 ( സത്യത്തിൽ പുതിയ ലിപിയിൽ ഉള്ള എല്ലാ
വാഴച്ചാൽ പൂയംകുട്ടി - മൂന്നാർ കാർഡമം ഹിൽസ്‌ പെരിയാർ കുളത്തൂപുഴ അഗസ്‌ത്യമല
സ്ത്രീപുരുഷന്മാർക്കുള്ള സ്ഥാനം എന്ന താളിലേക്ക് തിരിച്ചുവിടുന്നു
പ്രാധാന്യത്തെപറ്റി ഇതുവരെ അന്വേഷണം നടത്തിയിട്ടില്ല. കേന്ദ്രസർക്കാർ
പ്രതിഫലം കൊടുക്കുന്നവൻ, (മത്താ.9-6) പാപങ്ങളെ മോചിക്കുന്നവൻ, (യോഹ. 6, 5ന്ധ,54)
തിരുദൂതൻ(സ)പറഞ്ഞു. നിശ്ചയം, അല്ലാഹു അഴകുള്ളവനും അഴകിഷ്ട പ്പെടുന്നവനുമാണ്.
ത്വരമാണോ ധനഞ്ജയഃ ശരൈർ ആശീവിഷാകാരൈർ ജഘാന സ്വനവദ് ധസൻ 31 തേ ഭഗ്നമനസഃ സർവേ ത്രൈഗർതക
അപ്പോൾ എല്ലാ വ്യസനങ്ങളും അവസാനിക്കും. ദുഃഖങ്ങൾ അസ്തമിക്കും. കർമ്മബീജങ്ങൾ
തീവാലുണ്ടായിതാരങ്ങളിലഹഹഹിമം ചോരയായ്ത്തീർന്നുറോനിൻ ഭൂവാപത്തിൽപെടുന്നാൾകടലിലുടമ
ഋഷിഃ പ്രണതോ ഽഭവത് 112 [ർസി] ത്വത്പ്രസാദാൻ മഹാദേവ തപോ മേ ന ക്ഷരേത വൈ 113
(ആദിപുസ്തകം 2-അ. 7-വാ യഹോവ മനുഷ്യനെ മണ്ണുകൊണ്ടു സൃഷ്ടിച്ചു ജീവശ്വാസത്തെ
വിജ്ഞേയാ സങ്കീർണാ പ്രകൃതിദ്വിജാഃ 13 ശകാരശ്ച വിടശ്ചൈവ യേ ചാന്യേപ്യേവമാദയഃ
പത്തൊൻപത് അദ്ധ്യായം പതിനെട്ട് അദ്ധ്യായം പതിനെട്ട് അദ്ധ്യായം ഇരുപത് അദ്ധ്യായം
ചെയ്യുന്ന ഒരു പരിസ്ഥിതി ദുർബ്ബല മേഖല സന്ദർശ്ശിക്കാൻ പോലീസ്‌ സംരക്ഷണം തേടിയതിൽ
യദാശ്രൗഷം നിഹതം മദ്രരാജം; രണേ ശൂരം ധർമരാജേന സൂത സദാ സംഗ്രാമേ സപർധതേ യഃ സ കൃഷ്ണം;
പോസ്റ്റ്‌ ബാംഗ്‌ളൂർ 560 0064 26. എൻ.എ. മദ്ധ്യസ്ഥ ലാന്റ്‌ സ്‌നെയിൽസ്‌ ഓഫ്‌
കീഴെ സ്ഥാനത്തിങ്കന്നു് ഇതിനെ ഇരട്ടിച്ചു ഹരിക്കുക. മുമ്പിൽ നാലാമതു ഗുണിച്ചു
നിയമപ്രശ്‌നമല്ല. നിയമവിരുദ്ധപ്രവർത്തനങ്ങളുടെ പ്രശ്‌നമാണ്‌. ഉദാഹരണത്തിന്‌ ഖനനക്കാർ
ഇമാം ഒരു ജാമ്യക്കാരനും മുഅദ്ദിൻ വിശ്വാസം അർപ്പിക്കപ്പെട്ടയാളും ആകുന്നു. അല്ലാഹുവേ
ഇങ്ങിനെ ലോകസ്വഭാവത്തിന്നും വാസ്തവത്തിന്നും വിരുദ്ധമായ വർണ്ണനകൾ
അവിടെ ഉ ല്പാദിപ്പിക്കുന്നു. 3)സംമിളിതഭംഗം:- ( ഇതിൽ എല്ലു ഒടിഞ്ഞതോടുകൂടി മററുവല്ല
ദൈവാദ്ഭവജലനിധിപോതായിതേ മർത്യദേഹേ ത്വം കൃത്വാ കർണധാരം ഗുരുമനുഗുണവാതായിതസ്താരയേഥാഃ
ഈ വാക്കു തീകോരിയിടുന്നല്ലോ! ശാർങ്ഗരവൻ: എന്താണെന്നോ? ലോകതന്ത്രത്തിൽ
ഒരു വാതിലിന്മേൽ 3 പ്രാവിശ്യം മുട്ടും. അപ്പോൾ അതിനെ തുറക്കും. തുറന്ന ഉടനെ
സൃഷ്ടിച്ചിരിക്കുന്നു വർഗ്ഗം:പരിചമുട്ടുകളിപ്പാട്ടുകൾ - പുതിയനിയമം ഞാനുമെന്റാടും
ദദ്യാദഭീതിം സഹസാ മഹാത്മാ 41 വിദ്വാൻ സ തസ്മാ ഉപസത്തിമീയുഷേ മുമുക്ഷവേ സാധു
 മൂത്തതമ്പുരാട്ടിയായി സ്ഥ നമേറ്റ ഭരണിതിരുനാളിന്റെ മകളായിരുന്നു. സ്വാതിതിരുനാളിന്
യുവാനഃ പഞ്ച ഭാമിനി 28 പുത്രാ ഗന്ധർവരാജസ്യ മഹാസത്ത്വസ്യ കസ്യ ചിത് രക്ഷന്തി തേ ച
പെറ്റവനോടിവന്നിടുമ്പോൾ ഭഗവനനന്ത! ജയിക്കമെന്നുമോതീ- ട്ടഗണിതമഞ്ജലിചെയ്തു ഞാൻ. ശ്ലോ
അനുബന്ധം:1883-ലെ ജർമ്മൻ പതിപ്പിനുള്ള മുഖവുര 1882-ലെ റഷ്യൻ പതിപ്പിനുള്ള മുഖവുര
സഹ്യാദ്രിഖണ്ഡത്തിന്റെ ഉത്തരാർദ്ധം ഒന്നാം അദ്ധ്യായത്തിൽ താഴെ പറയുന്നവിധം കാണുന്നു.
ബ്രിട്ടിഷുകാർ ഇതിന് ശ്രമിച്ചു തുടങ്ങിയിട്ടേയുണ്ടായിരുന്നുള്ളു. നേരത്തെ
അഗ്രഹാരവീഥിയിൽ കഴിക്കാൻ നിശ്ചയിച്ച് പ്രച്ഛന്നവേഷനായി പുറപ്പെട്ടിരുന്ന
ദൂതൻ(സ) പറഞ്ഞു: മയ്യത്തു നമസ്കാരത്തിൽ, അവനുവേണ്ടിയുള്ള പ്രാർത്ഥന
1769-1774; 1867 1896. 1899 1851 1774), 1833), 1901); 1761 (2 1863) 1823 118%
പതുക്കവെ. തമ്പിയും സീതയും താനുമായ്കൂടിയി- ട്ടമ്പോടു മാമുനിതന്റെ പാദങ്ങളിൽ
നിശ്ചയമുണ്ടായിരുന്നു. എങ്കിലും, ആ ഉദ്യോഗസ്ഥൻ പൂർവ്വോദ്യോഗത്തിലേക്കു
ആഹാരസാധനങ്ങൾ തീർന്നു. അല്ലെങ്കിൽ മദീനയിലായിരിക്കുമ്പോൾ തന്നെ അവരുടെ കുടുംബത്തിലെ
ഖഗങ്ങളൊക്കയും പറന്നുപായുന്നു അതിയായിപ്പെരുവഴികളെയെല്ലാം. അതിക്രമിച്ചുള്ള
ഉല്പാദിപ്പിക്കുന്ന ചരക്കിന്റെ യഥാർഥ ഉപയോഗം തന്നെ അണിയറയിലേക്ക് പിൻതള്ളപ്പെടുന്നു.
5) ആയിശ(റ) നിവേദനം: നബി(സ) ആയിശ(റ) യുടെ സഹോദരനായ അബ്ദുറഹ്മാനെ അവരുടെ കൂടെ
വ്യർത്ഥമാമർത്ഥകോടിയും അഭോക്താവായ് ഗുണിക്കേകാദ്ധനി നോവാം ധനത്തിനു്
കൈവണങ്ങിനാൻ. കട്ടി-ശ്ലോ 58 കരാഞ്ചിതപ്രതിഭയഖഡ്ഗതല്ലതല്ലയജേ!
അടങ്ങിയിരിക്കുന്നതെന്നും, അത് അവസാനമായി നഷ്ടപ്പെട്ടുപോകുമ്പോഴാണ് മരണം
ചന്തപ്പെണ്ണും ഉണ്ടായതെങ്ങനെ തറവാട്ടിൽ പിറന്നവളും' 'ചന്തപ്പെണ്ണും' ഉണ്ടായതെങ്ങനെ
രേഖപ്പെടുത്തിയിട്ടുള്ളത്, അദ്ദേഹത്തിന്റെ ശ്രദ്ധേയ സംഭാവനകൾ എണ്ണുമ്പോൾ, ഒന്നാമതായി
ബ്രഹ്മ ഭൂർഭുവഃ സുവരോം 1 ത്രിസുപർണമന്ത്രഃ 1 അഷ്ടത്രിംശോഽനുവാകഃ. ബ്രഹ്മമേതു മാം.
കിം തേന ന കിഞ്ചനേതി ഹോചുര്യൂയമേവാശ്ചര്യരൂപാ ഇതി ഹോവാച ന ചേത്യാഹുരോമിത്യനുജാനീധ്വം
അലയടിച്ച ഗീതഗോവിന്ദകാവ്യത്തിന്റെ രണ്ടു നൂറ്റാണ്ടുമുമ്പുണ്ടായ മലയാളഭാഷാ വിവർത്തനം.
പോകാം. ഉപയോക്താവ്: മനോജ്‌.കെ 11:08, 11 ഓഗസ്റ്റ് 2011 ( ഒപ്പുവെക്കാത്തവ 83
ധനഞ്ജയഃ ജഘാന ദസ്യൂൻ സോദ്വേഗോ വൃഷ്ണിഭൃത്യൈഃ സഹ പ്രഭുഃ 59 ക്ഷണേന തസ്യ തേ രാജൻ ക്ഷയം
പ്രസിദ്ധീകരിച്ച കൃതികൾ താൾ: 02 04-150 2014 പ്രമാണം: 2014 3. ഡിജിറ്റൈസേഷൻ മത്സരം
താൾ:സൗന്ദര്യനിരീക്ഷണം. 28 തെറ്റുതിരുത്തൽ വായന കഴിഞ്ഞവ */ നേരെമറിച്ചു്,
5.ക്രത്രിമശ്യസനക്രയ നടത്തുകശ്യസംനിന്നാൽ മാത്രം,ഇല്ലെക്കിൽ അരുത് താൾ: 1917. 161
തപ്തസ്വർണച്ഛായജടാജൂടകടാഹ- പ്രോദ്യദ്വീചീവല്ലിവിരാജത്സുരസിന്ധും നിത്യം സൂക്ഷ്മം
നടന്നിട്ടില്ലാത്തവ */ 'ലക്കം 2 ' കാകൻ ' 69 താൾ താൾ: 5 1906. 88 തെറ്റുതിരുത്തൽ
സംവത്സരാദൂർധ്വം ജീവിതസ്യ ക്ഷയോ ഭവേത്. മണിബന്ധേ തഥാ ഗുൽഫേ സ്ഫുരണം യസ്യ നശ്യതി 122
29. 5. 6 1.26/ 76397] 14 2015 5 14:30 ( 2015- 081639. 18 2015 6 18:00 ( 22 25. 8.
ശ്രുതിര്യത്രൈതത്കർണാവപിഗൃഹ്യ നിനദമിവ നദഥുരിവാഗ്നേരിവ ജ്വലത ഉപശൃണോതി തദേതദ്ദൃഷ്ടം