ഇവിടുന്നു നിങ്ങൾ പുറപ്പെട്ടാശ്രമം കടന്നുതെക്കോട്ടു വളച്ചനന്തരം നടന്നു പിന്നെയും
വിഖ്യാത ഇന്ദ്രാദ് അവരജോ ഭുവി 24 ശിശുർ ഭൂത്വാ ദിവം ഖം ച പൃഥിവീം ച പരന്തപ ത്രിഭിർ
ക്കാകുലമുള്ളിലുണ്ടായീലൊട്ടും, ലോകപാലകന്മാരേ, നാകസുഖമാർക്കു ഭാഗധേയമില്ലെന്നാകിൽ
സുവർലോകേഷ്വിതി ഹോവാച കസ്മിൻസുവർലോകാ ഓതാശ്ച പ്രോതാശ്ചേതി മഹർലോകേഷ്വിതി ഹോവാച
ഉണ്ടായിട്ടുണ്ടെങ്കിലും അവയിൽ സർവ്വപ്രധാനമായ ഒന്നു രണ്ടു വിഭാഗങ്ങളെക്കുറിച്ചു
വിളംബിക്കാതെതന്നെ ആ വായുവിനെ ഇടത്തെമൂക്കിന്റെ ദ്വാരം അടച്ചുകൊണ്ടു
ഫലകത്തിന്റെ വിവരണവിക്കിപീഡിയ:ഉപതാൾ ഉപതാൾ ആണ്‌ പ്രമാണം: ചുരുക്കം വിവരങ്ങൾ വിവരണം=
അയ്യപ്പൻപിള്ള ഏറ്റുപറഞ്ഞു. അങ്ങനെ അക്രമം പ്രവർത്തിച്ചതിന്റെ കാരണമെന്തെന്നു
മുമ്പേ നടന്നുതുടങ്ങും. ആളുകൾ അങ്ങേ അറ്റത്തു ചെല്ലുന്നതിനുമുമ്പേ അവിടെ എത്തും.
ധ്യായേത്ഷട്കോണമധ്യസ്ഥരാമാങ്കോപരി ശോഭിതാം 97 ലകാരം തു സമുദ്ധൃത്യ ലക്ഷ്മണായ
ഗ്രാമീണനായ അറബി വന്ന് അത് രണ്ടുപിടിയായി തിന്നുകളഞ്ഞു. റസൂൽ(സ) പറഞ്ഞു. അവൻ ബിസ്മി
 തിരുവനന്തപുരത്തുനിന്നു പ്രസിദ്ധം ചെയ്യുന്ന 'കേരളൻ 'എന്ന മാസികയുടെ ആദ്യലക്കമായ
അന്തരമാകുന്ന ഒന്നിനെക്കൊണ്ടു ഗുണിച്ചാൽ സംഖ്യാഭേദമില്ലായ്കയാൽ മൂന്നുതന്നെ
സ്നേഹത്തെക്കുറിച്ചും ഈശോമിശിഹാ തന്റെ തിരുരക്തത്താൽ നേടിയ അവകാശത്തിന്മേൽ കൃപയോടെ
കൊടുക്കൽവാങ്ങലിന് 'സ്ത്രീധനം' എന്ന പേർ യോജിക്കില്ല. കല്യാണവേളയിൽ വധുവിന് സ്വന്തം
താവ് ഏകരഥം ആരൂഢാവ് ആദിത്യാഗ്നിസമത്വിഷൗ വ്യഭ്രാജേതാം യഥാ മേഘം സൂര്യാഗ്നീ സഹിതൗ
1903. താൾ: 1903. താൾ: 1903. 10 താൾ: 1896. 114 2014 താൾ: 1896. 65 2014 താൾ: 1914.
പ്രത്യാശാക്ഷാന്തിയേ യും ഇടവിടാതെ നമ്മുടെ ദൈവവും പിതാവുമായവന്റെ തിരു മുമ്പിൽ
തിരുമനസ്സുകൊണ്ട് മൂസ്സിന് അനേകം സമ്മാനങ്ങൾ കല്പിച്ചു കൊടുത്തു
ചന്തിയിൽ ചൂടുവെയ്ക്കാൻ അദ്ദേഹം കല്പിച്ചു. ആദ്യമായി ചന്തിയിൽ ചൂടുവെച്ചത്
ദിവസത്തിനുശേഷം എന്റെ സഹോദരന്റെ (ജഅ്ഫറിന്റെ) പേരിൽ നിങ്ങൾ കരയരുത്. എന്റെ സഹോദരന്റെ
427 യസ്യ സ്ഥിതാ ഭവേത്പ്രജ്ഞാ യസ്യാനന്ദോ നിരന്തരഃ പ്രപഞ്ചോ വിസ്മൃതപ്രായഃ സ
കൂടിയാലോചന നടത്തുകയും ചെയ്‌തു. പദ്ധതി പ്രദേശത്തെ ജൈവവൈവിദ്ധ്യം ഹാസ്സൻ ജില്ലയിലെ
ജുഗുപിഷവ ഇഹൈത്യ പാണ്ഡവം; കിം ഉ ബഹുനാ സഹ തൈർ ജയാമി തം 61 ഇതി രണരഭസസ്യ കത്ഥതസ്; തദ്
വിപര്യസ്തം സ്വച്ഛന്ദഗതിചേഷ്ടിതം അനിബദ്ധഗീതവാദ്യം നാട്യം ബാഹ്യമിതി സ്മൃതം 77
മാർഗ്ഗത്തിൽ ഒരാളുടെ ഇരു കാൽപാദങ്ങളിലും മണ്ണ് പുരളുകയും അതിന് നരകാഗ്നി
എസ്. പരമേശ്വരയ്യർ 1938 ഉള്ളൂർ വർഗ്ഗം:പൂർണ്ണകൃതികൾ താൾ:ചൈത്രപ്രഭാവം.
ഉദാഹരണം - നാലാണീഞങ്ങളൃത്വിക്കുകളപി ച ചടങ്ങോതുവാൻ വാസുദേവൻ മേലാളാണീക്ഷിതീശൻ
1868. 517 തെറ്റുതിരുത്തൽ വായന കഴിഞ്ഞവ */ താൾ: 1772. 97 2014 വർഗ്ഗം:താളുകൾ - 1772
മന്ത്രങ്ങളെ ജപിച്ചു. സന്ധ്യ കഴിഞ്ഞയുടനെ പ്രാർത്ഥന ഫലിച്ചു. ഒരു
ക്ഷമായാചനം ചെയ്യുകയും അത്രയും സംഖ്യ ഭണ്ഡാരത്തിലിട്ടു മഹാദേവനെ വന്ദിക്കുകയും
യുഗപത്പത്രിണാ സപ്ത സാലാൻ ഹത്വാ സുഗ്രീവഘാതോദ്യതമതുലബലം വാലിനം വ്യാജവൃത്ത്യാ
മാനേജ്‌മെന്റ്‌ പശ്ചിമഘട്ടസമിതി തയ്യാറാക്കിയ അടിസ്ഥാനത്തിൽ പരിസ്ഥിതി
വാക്യം ധർമാർഥസംഹിതം 2 നാവമാനം കുലസ്യാസ്യ ഗുഡാ കേശഃ പ്രയുക്തവാൻ സംമാനോ ഽഭ്യധികസ്
ബുദ്ധൗ യോ ബോദ്ധവ്യേ യോ ബ്രഹ്മണി യോ നാഡ്യാം യഃ പ്രാണേ യോ വിജ്ഞാനേ യ ആനന്ദേ യോ
സ്പെഷ്യൽ കാരക്റ്ററുകൾ ഉപയോഗിക്കുന്നതിലും നിയന്ത്രണമുണ്ട്‌. ഉദാ. ! പേരിന്റെ
നബി(സ) എനിക്ക് ഓതി തന്നു: എന്റെ സമുദായത്തിൽ നിന്നു ഒരു സംഘം, സത്യത്തിന്
സിദ്ധിക്കുന്നു. പുറപ്പാടുപുസ്തകം 11) ഇസ്രായേലന്മാരെ അയല്ക്കാ രോട് ആഭരണങ്ങളെ
പ്രജാപതിരുവാചാനുപലഭ്യാത്മാനമനനുവിദ്യ വ്രജതോ യതര ഏതദുപനിഷദോ ഭവിഷ്യന്തി ദേവാ വാസുരാ
പ്രൊട്ടസ്റ്റണ്ട് ക്രിസ്ത്യൻ കത്തോലിക്കാഗുരുക്കന്മാരെയും രാജസ്ത്രീകളേയും ജനങ്ങൾ
അദ്ധ്യായം പന്ത്രണ്ട് വർഗ്ഗം:ധർമ്മരാജാ ധർമ്മരാജാ/അദ്ധ്യായം പന്ത്രണ്ട് സി.വി.
ലോട്ട്. പര. മദ്ധ്യ. ഇ. അന്വയം - ഹേ മാതഃ ത്വം ബാലാർക്കദ്യുതിദാഡിമീയകുസുമ
നരഃ പാപൈഃ പ്രമുച്യതേ 25 ആധാരചക്രമഹസാ വിദ്യുത്പുഞ്ജസമപ്രഭാ. തദാ മുക്തിർന സന്ദേഹോ
ഇല്ലാത്തവയുമാണ്‌. ജൈവ വൈവിദ്ധ്യ പൈതൃക സൈറ്റുകളുടെ കണ്ടെത്തൽ, സംരക്ഷണ റിസർവ്വുകൾ
മറ്റുമല്ല. എന്റടുത്ത് വരുവിന്! മാനവു ആകായവും പെരുമയും പ്രാതനവും ഒന്നും
വിത്തേശ ഇവാരി ഹന്താ 34 തതോ വിത്തം വിവിധം സംനിധായ; യഥോത്സാഹം കാരയിത്വാ ച കോശം
1893. കവിഭാരതം - മണിപ്രവാളം കവിഭാരതം(മണിപ്രവാളം രചയിതാവ്:കൊടുങ്ങല്ലൂർ
വിനിഃസൃതാൻ വിഗതാസൂനി സർവാണി സത്ത്വാനി വിവിധാനി ച 24 തം അഗ്നിം അമര ശ്രേഷ്ഠഃ
പ്രയോക്തവ്യസ്ത്ര്യശ്രസ്യാപി പ്രയോക്തൃഭിഃ 104 ഏവമേതേന വിധിനാ കാര്യാ നാട്യഗൃഹാ
അന്തർജ്ജനങ്ങളും ഭക്ഷിക്കാറുണ്ട്. സംഘം തികയണമെങ്കിൽ അവരുടെകൂടെ വേദാർഹന്മാരായ രണ്ടു
നിശ്ചയമില്ലാതെയായിത്തീരുകയും ചെയ്തു. ഭ്രഷ്ടനായിപ്പോയ അദ്ദേഹത്തിനു
23. 372) 28) ഉസാമ(റ) നിവേദനം: തന്റെ പുത്രന് മരണം ആസന്നമായിരിക്കുകയാണെന്നും
ഇരിക്കാറുണ്ട്. (ബുഖാരി. 3. 33. 242) 2) ആയിശ(റ) നിവേദനം: നബി(സ) മരിക്കുന്നതുവരെ
എന്നിങ്ങനെ ഏതാനും ജലജന്തുക്കളും, 'എസ്തിമൊ' എന്നൊരു വക കുറുകിത്തടിച്ച
പുത്രശതം ബഭൂവ ഗാന്ധാര്യാം വരദാനാദ് ദ്വൈപായനസ്യ 62 തേഷാം ധൃതരാഷ്ട്രസ്യ പുത്രാണാം
ശുദ്ധോ നിഷ്കല ഏകോ ജഗദീശഃ സാക്ഷീ യസ്യാഃ സർഗവിധൗ സംഹരണേ ച വിശ്വത്രാണക്രീഡനലോലാം
പൂർണാത്പൂർണമുദച്യതേ. പൂർണസ്യ പൂർണമാദായ പൂർണമേവാവശിഷ്യതേ ഓം ശാന്തിഃ ശാന്തിഃ
മിടുക്കുംവിട്ടുഭൂപനെന്തിനിച്ചെയ്‌വതെന്നു നടുക്കംപൂണ്ടുചിത്തംഭ്രമിച്ചങ്ങതുനേരം
വികതങ്ങളായിരുന്നു. അവയിലൊന്നു് ഇംഗ്ലണ്ടിൽ വീണ്ടും അച്ചടിച്ചിറക്കിയിട്ടുണ്ടു്.
ക്രോധീ നൈവ കാമീ ന ലോഭീ നാഹം ബദ്ധോ നാപി യുക്തോ ന മുക്തഃ സാക്ഷീ നിത്യഃ
നീയല്ലാതെ ഒരു ആരാധ്യനുമില്ല. നിന്റെ പ്രതാപത്തെ ഞാനിതാ അഭയം പ്രാപിക്കുന്നു.
ഗതിഭേദങ്ങളെയും നദികളുടെ ഉല്പത്തിയെയും രാജ്യങ്ങളുടെ സ്വഭാവത്തെയും, ഇടി, മഴ, മഞ്ഞു്
വിദുഃ അർത്ഥം: ഏവൻ ലോകരെ തന്നെപ്പോലെ നിരൂപിക്കുന്നോ, ധർമ്മത്തിൽ ജ്ഞാനവും
പ്രാർത്ഥിച്ചു. നോമ്പുകാർ നിങ്ങളുടെ അടുത്ത് നോമ്പ് തുറക്കട്ടെ! നിങ്ങളുടെ ആഹാരം