മനോഹരവും ഗംഭീരമായ ശബ്ദം പുറപ്പെടുവിക്കുന്നതും ആയ ഒ രു രഥത്തിൽ കയറിയാണ്
മന്ത്രരാജം നാരസിംഹമാനുഷ്ടുഭം നിത്യമധീതേ സ ദേവാനാകർഷയതി സ യക്ഷാനാകർഷയതി സ
ചോദിച്ചു: അത് എത്രയും നിസ്സാരമാണെങ്കിലോ? പ്രവാചകരേ! അവിടുന്ന് പറഞ്ഞു: അത് ഒരു
കറുപ്പസ്വാമിയുടെ തുള്ളലും അട്ടഹാസവും അപ്പോൾ കലശലാകും. അപ്പോൾ ചേപ്പാറമുണ്ടൻ,
ഇറങ്ങിപ്പോകുന്നത് ഞാനിതാ കാണുന്നു. (ബുഖാരി. 4. 55. 574) 13) അബുദർറ്(റ) നിവേദനം:
വല്യ തമ്പുരാന്റെ പൂൎവന്മാരായ രണ്ടുമഹാരാജാക്കന്മാരുടെ കാലത്തു (൧൮൬൦ാമാണ്ടുമുതൽ. വിഷ്ണുരൂപേ മഹായോഗീ പാലയേദഖിലം ജഗത് 53 രുദ്രരൂപേ മഹായോഗീ സംഹരത്യേവ തേജസാ.
കൂട്ടുകുടുംബങ്ങൾ ഭാഗംവയ്ക്കാൻ അനുവദിച്ച നായർ ആക്ട് നിലവിൽവന്നു; ഇതോടെ പുരുഷന്റെ
വ്യക്തമാക്കിയിട്ടുണ്ടല്ലോ. ഇതിന്റെ പരിധികളിലുള്ള സർപ്പിലഭുജങ്ങളിൽ ഹൈഡ്രജൻ
മാന്യരായ്കട്ടി-ശ്ലോ 48 പരർ കഥിപ്പൊരു കാഞ്ചനകാശ്യപീ ധരസമം പൊരുൾ കിട്ടി;
ദശകം എൺപത് ദശകം എൺപത് ദശകം എൺപത്തിരണ്ട് ദശകം എൺപത്തിരണ്ട് ഫലകം:നാരായണീയം 81.1
നാഭിന്നം നാപി ഭിന്നാഭിന്നം കുതശ്ചിത് ന നിരവയവം ന സാവയവം നോഭയം കിന്തു
യാത്രചെയ്യുമ്പോൾ ഒരു ഇടിയും മഴയും ഉണ്ടായതായി വിചാരിച്ചു വർണ്ണിക്കുക. അല്പന്
വെളിച്ചം കണ്ടപ്പോൾ തമ്പ്രാക്കളുടെ ഭൃത്യൻമാർ ഈ മനിഷ്യൻ അയാളുടെ വീട്ടിലെ മുകളിലത്തെ
ലെ ജൈവ വൈവിദ്ധ്യ നിയമം അനുശാസിക്കുന്നു. ഇത്തരമൊരു പരിപാടി വിജയിപ്പിക്കണമെങ്കിൽ
മഹാഭാഷ്യം മഹാഭാഷ്യം വർഗ്ഗം:ഐതിഹ്യമാല ഐതിഹ്യമാല/മഹാഭാഷ്യം കൊട്ടാരത്തിൽ_ശങ്കുണ്ണി
ദ്വൈതാദ്വൈതം ന വിദ്യതേ 99 മായാകാര്യമിദം ഭേദമസ്തി ചേദ്ബ്രഹ്മഭാവനം. ദേഹോഽഹമിതി
 താൾ: 1921. തെറ്റുതിരുത്തൽ വായന നടന്നിട്ടില്ലാത്തവ */ ഗൌരീചരിതം കൊച്ചി
ജന്തോഃ 10 നലിനീദലഗതജലവത്തരലം കിം യൗവനം ധനം ചായുഃ കഥയ പുനഃ കേ ശശിനഃ കിരണസമാഃ
ഒറ്റക്കണ്ണുകൊണ്ടു് അഗണ്യമായി പരിശോധിക്കുന്ന ആ ശീലവും കാണുമ്പോൾ ആർക്കും തനിയെ
താൾ: 1868. 334 തെറ്റുതിരുത്തൽ വായന കഴിഞ്ഞവ */ താൾ: 1902. 45 സാധൂകരിച്ചവ */ 658
സാധ്യമല്ല. മീഡിയ ഒരു പ്രമാണത്തിന്റെ വിവരണ താളിനു പകരം, പ്രമാണത്തിലേക്ക് നേരിട്ട്
ഭാഷാഭൂഷണം/പേജ് 20 പേജ് 20 മായ താരിന് നിന്റെ കാലായി പരിണമിച്ചിട്ടുള്ള അവസ്ഥയിൽ
പരിഹീയന്തേ പാപീയാൻ വർധതേ ജനഃ ധർമസ്യ ബലഹാനിഃ സ്യാദ് അധർമശ് ച ബലീ തഥാ 48 അൽപായുഷോ
വിസ്തരിക്കുന്നില്ല. അതിനാൽ പ്രസിദ്ധപ്പെട്ട ആ ഇല്ലത്തു പണ്ടത്തെപ്പോലെ ഇനിയും
സൃഷ്ടിച്ചിരിക്കുന്നു വർഗ്ഗം:1934-ലെ_കൃതികൾ വർഗ്ഗം:ഉദ്യാനലക്ഷ്മി ചങ്ങമ്പുഴയുടെ
സമുപാസ്മഹേ 17 ദ്രഷ്ടൃദർശനദൃശ്യാനി ത്യക്ത്വാ വാസനയാ സഹ. ദർശനപ്രത്യയാഭാസമാത്മാനം
ശ്രുതങ്ങളെന്നതും പിഴപ്പാനുള്ളതു യജിയ്ക്കേണമെന്നും കൊടുക്കേണമെന്നും തപസ്സുകൾ തന്നെ
കാണ്മാനിടവരുന്നതോ ആയാൾ ചരാചരഗുരുവായിരിക്കുമെന്നു ഹനുമാന്റെ ഗുരുവായ സൂര്യൻ
അറുപത്തിയഞ്ച് ദശകം അറുപത്തിയഞ്ച് ഫലകം:നാരായണീയം 64.1 ആലോക്യ ശൈലോദ്ധരണാദിരൂപം
നടന്നിട്ടില്ലാത്തവ */ താൾ: 22 താൾ: 23 താൾ: 24 തെറ്റുതിരുത്തൽ വായന
രാജ്യവും വാണുകൊ- ണ്ടെത്രയും നന്നായിരിയ്ക്കട്ടെ കൈകേയി പുത്രൻ
കേളിവിടെ വന്ന പരിഷയുടെയന്വയം ഗുണവുമെല്ലം എന്നുടേ മനസി തോന്നുമെന്നിഹ മുകുന്ദനേകി
വിട്ടുപോയിട്ട് ഏകദേശം നാലു നാഴിക കഴിഞ്ഞിരിക്കുന്നുവെന്നും അറിവുകിട്ടി. ഈ
സവിശേഷത. പരസ്‌പരപൂരകമായ ഈ സമീപനം കാര്യനിർവ്വഹണത്തിലെ നൂലാമാലകൾ ഒഴിവാക്കി
1920. തെറ്റുതിരുത്തൽ വായന നടന്നിട്ടില്ലാത്തവ */ 'സർവ്വവേദാന്തസിദ്ധാന്ത സാരസംഗ്രഹം
കുളിച്ചനന്തരം ജലക്രിയകളും കഴിച്ചു പിന്നെയും കരയിൽ വന്നഥ
പ്രകൃതിക്കുമേലുള്ള മനുഷ്യന്റെ വിജയത്തെപ്പറ്റി കൊട്ടിഘോഷിച്ച് നമുക്ക് ഊറ്റം
കണ്ണുപോയാൽ അറിയാം കണ്ണിന്റെ കാഴ്ച- 821 കണ്ണെത്താക്കുളം, ചെന്നെത്താവയൽ, നഞ്ഞും
തന്റെ ഭർത്താവിനോട്‌ ഇപ്രകാരം പറഞ്ഞു. അല്ലയോ ജീവിത നായക! ഞാൻ പറയുന്നത്‌
പുറപ്പാട് പുസ്തകം ന്ധ-14-15 ടി ഞ്ജ0- ന്ധ, ആവർത്തനപുസ്തകം 4-ന്ധ9, ടി 6-4, ടി
ഫലകം:വ ഫലകം: ഫലകം: എന്ന താളിലേക്ക് തിരിച്ചുവിടുന്നു തിരിച്ചുവിടുക കടാങ്കോട്ടു
തന്നെ ഒരു വലിയ ഭാഗം ആനുകാലികമായി നശിപ്പിക്കപ്പെടുന്നു. മുൻകാലഘട്ടങ്ങളിലെല്ലാം
അതെന്തുകൊണ്ടാണെന്ന് മനസ്സിലാക്കാൻ താങ്കൾ ശ്രമിക്കേണ്ടതാണ്. മര്യാദയോടെയുള്ള
തസ്മാദനിത്യേ സ്വർഗാദൗ സാധനത്വേന ചോദിതം നിത്യം നൈമിത്തികം ചാപി സർവം കർമ സസാധനം 172
പേടമാൻമിഴിയാളെ നീ താൾ: 2 1927. 488 19094 താൾ: 2 1927. 490 19094 താൾ: 2 1927. 491
ഭവാന്മാരാൽ പറഞ്ഞടക്കിനാൻ 4. അടക്കിക്ക ഒരു കോല്ക്കടക്കിച്ചു അടച്ച് അടയുക. അടനം
1980 എഡി വരെ 1980 മുതൽ ഇന്ന്‌ വരെ ബ്രിട്ടീഷ്‌ ഭരണം തുടരുന്നു; ഭൂപ്രഭുക്കളും
നാൾപ്പതിപ്പ് 74783 നീക്കം ചെയ്യുന്നു 1.0; 0.0 0.0 0.0 0.0 0.0 0.0 0.0 0.0 4' 3'
പിടിപെട്ടു. ചികിത്സക്കായി അവൻ പ്രസ്തുത മഠത്തോടു ചേർന്നുണ്ടായിരുന്ന ആതുരശാലയിൽ
ചെല്ലും; ഇല്ലാതായാൽ അലങ്കാരത്തിനേ കൊള്ളുകയുള്ളു. ഇതിനു പുറമേ പദ്യങ്ങളിൽ മാത്രം
നിങ്ങൾക്കു നീതിശാസ്ത്രത്തെ ഗ്രഹിപ്പിച്ചു, നിർമ്മലജ്ഞാനമുണ്ടാക്കുവാൻ നമ്മോടു
അജ്ഞാനമിതി ച രജ്ജൗ സർപഭ്രാന്തിരിവാദ്വിതീയേ സർവാനുസ്യൂതേ സർവമയേ ബ്രഹ്മണി
മനുഉപയോക്താവിന്റെ സംവാദം: 30 16:01, 11 സെപ്റ്റംബർ 2014 ( 2015 ഡിജിറ്റൈസേഷൻ
സൂക്ഷ്മം പരം ചേതി ത്രിവിധം ബ്രഹ്മണോ വപുഃ 14 പഞ്ചബ്രഹ്മമയം രൂപം സ്ഥൂലം
ചോദിച്ചു. അവിടുന്ന് അരുളി: അല്ലാഹുവിലുള്ള വിശ്വാസവും അവന്റെ മാർഗ്ഗത്തിൽ സമരം
രാജാവ് മേൽപ്രകാരമുള്ള ഒരു നീതിന്യായവിത്തും ധർമ്മതല്പരനും ആയിരിക്കുമ്പോൾ 'യഥാ രാജാ
ദേവരാജ്യത്തിന്നു ദൂരസ്ഥനല്ല എന്ന് അവനോടു പറഞ്ഞു; പിന്നെ അവനോടു ചോദിപ്പാൻ ആരും
'ചിദാഭാസനെന്നും' ഉള്ള പേരുകൾ ജീവന് അന്വർത്ഥങ്ങളാകുന്നു. ഏഴുപാധികളിൽ വച്ച് ദേഹം,
അതിന്റെ ഉടമസ്ഥൻ ഉദ്ദേശിക്കുകയാണെങ്കിൽ കൊടുക്കാം. അഞ്ചൊട്ടകം തികഞ്ഞാൽ അവർക്ക്
കലരാത്തപോലെയെഴുനേറ്റദ്ദിക്കിലെസ്ത്രീകൾ,ത-
ആദിനാരായണോഽഹമേവ. തസ്മാന്മാമേകം ശരണം വ്രജ. മദ്ഭക്തിനിഷ്ഠോ ഭവ. മദീയോപാസനാം കുരു
പറയാറുണ്ടായിരുന്നു. (ബുഖാരി. 8. 77. 614) വർഗ്ഗം:തിരഞ്ഞെടുത്ത ഹദീസുകൾ തിരഞ്ഞെടുത്ത
ചോട്ടിൽ എന്ന് ആരോ പറയുന്നതുകേട്ട് കീഴ്പോട്ടേക്കു നോക്കിയപ്പോൾ മൂക്കു മുറിഞ്ഞു