ചോദ്യംചെയ്തതിന്, ഭൂതത്താൻ ഹരിപഞ്ചാനനനാമത്തെ സമസ്തബിരുദസമേതം ഉച്ചരിച്ചു.
പ്രവർത്തിക്കുന്ന സ്ത്രീകളുടെ എണ്ണം വർദ്ധിച്ചുകൊണ്ടുതന്നെയിരിക്കുന്നുവെന്നത്
ഇന്ദ്രനീലദ്യുതി ആ മഹാസരസ്സിന് വൈഷ്ണവപ്രകാശത്തെ സന്ധാനം ചെയ്യുന്നു. കാര്യക്കാർ
ടാക്കംകലർന്നപേഷിച്ചാനാക്കാശ്യപീന്രൻ 105.പകൽക്കുടയവനുടെമകൾമൂലമാണീമാലെ-
അങ്ങാടിമരുന്നുകൾ" / തലക്കെട്ടു മാറ്റം: പരിചമുട്ടുകളിപ്പാട്ടുകൾ/ഭാഗം ൩ ബൈബിൾ
പ്രവേശിക്കും. (തിർമിദി) 4) ഇംറാനി(റ)ൽ നിന്ന് നിവേദനം: ഒരിക്കൽ ഒരാൾ നബി(സ) യുടെ
ശിഷ്ടൻമാരവരേവരും പ്രതിദിനം മോ ദിച്ചുമേവീടിനാർ 80 വർഗ്ഗം:രാമചന്ദ്രവിലാസം
പരിഷയുടെ നടുവിലുട- നവിദിതനു കുതുകമവനാസീൽ ധന്യോഥ രക്ഷിജനകണാലലക്ഷ്യതനു
ദിശയിലുള്ള അന്വേഷണങ്ങൾക്ക് ആരംഭം കുറിച്ചത് മാവോ ആയിരുന്നു. സോഷ്യലിസ്റ്റു
കൃതികൾ. തെറ്റുതിരുത്തൽ വായന കഴിഞ്ഞവ */ താൾ:ഇടപ്പള്ളി സമ്പൂർണ്ണ കൃതികൾ. 91
1846. 20 20 1846 താൾ: 48 സാധൂകരിച്ചവ */ താൾ: 49 സാധൂകരിച്ചവ */ താൾ: 52
ചേലാ വലം മഹത് 10 ആജഗ്മുഃ കുരവസ് തത്ര വാദിത്രാനുഗതാസ് തദാ കർണം പ്രഹർഷയന്തശ് ച
കണക്കാക്കുവീൻ. അവസാനം അത് പത്ത് വസ്കുണ്ടാകുമെന്ന് നബി(സ) മതിപ്പിട്ടു. അങ്ങനെ
പ്രജാഃ സാധു കുർവന്തി യസ്തദ്വേദ യത്സ വേദ സ മയൈതദുക്ത ഇതി 4. 1. 6 സ ഹ,മുതലോ,കൃഷി,കൈത്തൊഴിൽ,കച്ചവടം എന്നിവക്കൊണ്ടു തന്നെ
അധ്യായം77 അധ്യായം79 അധ്യായം79 മഹാഭാരതം മൂലം/അശ്വമേധികപർവം/അധ്യായം79 വ്യാസൻ
കെട്ടും ഉപ യോഗിക്കേണം താൾ: 1917. 68 തെറ്റുതിരുത്തൽ വായന നടന്നിട്ടില്ലാത്തവ */ '
തെറ്റുതിരുത്തൽ വായന കഴിഞ്ഞവ */ സൂചിക: 1914. വർഗ്ഗം: 2014 2014 പ്രഭുശക്തി
അന്യദേശങ്ങളിൽ പഠിക്കുന്നതിലേയ്ക്കയച്ചുകൂടാ എന്നും 1709- ാം വർഷത്തിൽ കത്തോലിക്കാ
ഉപയോക്താവ് 000 1 14 40 1.25 000; ഉപയോക്തൃപെട്ടികൾ പുസ്തകപ്രേമി ഉപയോക്താക്കളുടെ
ഽദ്യ മഹാബാഹോ സൗഹൃദാത് പരമം ഹിതം 11 ഉപായാസ്യതി ശക്രസ് ത്വാം പാണ്ഡവാനാം ഹിതേപ്സയാ
മൂലം/വിരാടപർവം/അധ്യായം16 അധ്യായം16 മഹാഭാരതം മൂലം/വിരാടപർവം/അധ്യായം17 അധ്യായം17
പക്ഷികളുടെ സവിശേഷതകൾ പ്രസിദ്ധമാണ്, ആ സ്പീഷീസിൽ പെട്ട പക്ഷികളുടെ ആകൃതിയിൽ,
രാജാനം നീലം അഭ്രചയോപമം ഘടോത്കചോ ഽപി സങ്ക്രുദ്ധോ ഭ്രാതൃഭിഃ പരിവാരിതഃ 35 അഭിദുദ്രാവ
ശാഖാദർശനമാർഗഃ ശാഖാഭിനയഃ സ വിജ്ഞേയഃ 47 നാട്യായിതമുപചാരൈര്യഃ ക്രിയതേ ഭിനയസൂചയാ
പിതാ 27 തവ ചൈവ പ്രഭാവേണ സ്വർഗം യാസ്യന്തി സാഗരാഃ പൗത്രശ് ച തേ ത്രിപഥ ഗാം
- 1 വിക്കിഗ്രന്ഥശാല: വിക്കിഗ്രന്ഥശാലയുടെ കർശന നയങ്ങൾ; വിക്കിഗ്രന്ഥശാല നയങ്ങൾ ഈ
നാദഃ സ വൈ ബിന്ദുസ്തദ്വൈ ചിത്തം പ്രകീർതിതം. നാദോ ബിന്ദുശ്ച ചിത്തം ച ത്രിഭിരൈക്യം
ആയതു ഭ്രമാത്മകമാകുന്നു. ശാസ്ത്രസിദ്ധാന്തങ്ങളെ അനുസരിച്ചു ഗദ്യകൃതികളെ
നടുവിലിവളെച്ചൊല്ലിയങ്ങേക്കൊരിക്കൽ സന്താപത്തിന്നിടവരണ മെന്നല്ല ഞാനും വരുന്നു. 54
വർത്തിക്കുന്നുണ്ട്. ആ സംസ്‌കാരം പോലുമില്ലാതെ താൻ മാത്രമാണെന്നുള്ള നിശ്ചയത്തിനാണ്
നബി(സ) അരുളി: വല്ലവനും ഉദ്ദേശിക്കുന്നുവെങ്കിൽ അതു അനുഷ്ഠിക്കട്ടെ.
ആരംഭത്തിൽ) അനുകൂലമായി ഇരുന്നിരിക്കണം. ആദ്യമായുണ്ടായ ജനങ്ങൾ ജന്മസ്ഥലം വിട്ടു
വർഗ്ഗം:എഴുത്തുകാർ_ജനനവർഷം_അനുസരിച്ച് വർഗ്ഗം:1948-ൽ മരിച്ചവർ
ഭുജ്യതേ ഹ്യേഷ പ്രയുക്തഃ കിം കരോതി വാ 12 കസ്മാച്ചൈവ പുനഃ ശൗചം സമ്യക് ചരതി
മഹീപാലൈര്യസ്മാത്പൂജ്യാ ദ്വിജാഃ സ്മൃതാഃ 69 ബ്രാഹ്മണൈഃ സചിവോ വാച്യോ ഹ്യമാത്യഃ
കിളിപ്പാട്ടു് കൊച്ചി മലയാള ഭാഷാ പരിഷ്കരണക്കമ്മറ്റി സനാതനധർമ്മം അച്ചുകൂടം എറണാകുളം
കാര്യം പോലും ഉപേക്ഷിക്കാതെ ആർക്കും ഭക്തന്മാരിൽ ഉൾപ്പെടുവാൻ സാദ്ധ്യമല്ല. (തിർമിദി)
ഡബ്ലിയു.സി.ബാനൎജി, സുരേന്ദ്രനാഥ ബാനൎജി, ബാലഗംഗാധരതിലകൻ, ഗോപാലകൃഷ്ണഗോഖലെ, മുതൽപേർ
കുറേ പോയതിനു ശേഷം രണ്ടു മൂന്നു നാഴിക വിസ്താരം കുറഞ്ഞ ഒരു ഇടവഴിയിൽക്കൂടിത്തന്നെ
നാഹമചേതനം. നാസയാ ഗന്ധജഡയാ ക്ഷയിണ്യാ പരികൽപിതഃ 18 പേലവോ നിയതാകാരോ ഗന്ധോ നാഹമചേതനഃ
മഹാഭാരതം/അനുശാസനപർവം/അധ്യായം149 അധ്യായം149 മഹാഭാരതം/അനുശാസനപർവം/അധ്യായം150
അരുളി: ഈ അഗ്നി നിങ്ങളുടെ ശത്രുവാണ്. അതിനാൽ നിങ്ങൾ ഉറങ്ങുമ്പോൾ അതുകെടുത്തുവീൻ.
ഇബാദത്തിനുമുള്ള കഴിവ് നിന്നിൽ നിന്ന് മാത്രമാണ്. (അബൂദാവൂദ്) 74) ആയിശ(റ)യിൽ നിന്ന്
സമ്പൂർണ്ണ കൃതികൾ. 52 തെറ്റുതിരുത്തൽ വായന നടന്നിട്ടില്ലാത്തവ */ താൾ:ഇടപ്പള്ളി
ഉപയോഗിച്ച്) ചട്ടമ്പിസ്വാമികൾ ശാപഗ്രസ്തൻ ശാപഗ്രസ്തൻ എമ്പ്രാൻ 2 എമ്പ്രാൻ (2 ഇളയതു്
മാത്രമാണ്. (27) എന്നിങ്ങനെ 'സ്വദേശാഭിമാനി' ജനങ്ങളെ ഉത്ബോധിപ്പിച്ചുകൊണ്ടിരുന്നു.
തങ്ങി നില്ക്കുന്ന ബാഷ്പത്തിന്റെ ബഹിർഭാഗത്തിലേക്കുള്ള നിസ്സരണത്തിന് എന്നുള്ള
ദേഹേന്ദ്രിയമനോധിയഃ വിഷയേഷു സ്വകീയേഷു വർതന്തേ പ്രേരിതാ ഇവ 129 അഹങ്കാരാദിദേഹാന്താ
തിട്ടൂരങ്ങളുള്ളതിൽ പൊതുജനങ്ങളെ ഉദ്ദേശിച്ചും തന്റെ സൈന്യങ്ങളെ ഉദ്ദേശിച്ചും
പ്രവരാ സർവയോഷിതാം പതിവ്രതാ മഹാഭാഗാ സതതം സത്യവാദിനീ വനവാസം അദുഃഖാർഹാ ദാരുണം
ചെറിയ തേരിന്റെ ആകൃതിയിൽ കെട്ടിയുണ്ടാക്കുന്ന ഒരു വാഹനത്തിലാണ് രാത്രിയിലത്തെ
താവകാനാം മഹാത്മനാം പ്രാപ്യ പാണ്ഡുസുതാൻ വീരാൻ വ്യർഥം ഭവതി സംയുഗേ 7 ഘടമാനാൻ
വസന്തമലയാനിലബന്ധുശാലീ കാന്താകടാക്ഷവിശിഖൈർവികസദ്വിലാസൈഃ
[സ്] അനാദൃത്യ തു തദ് വാക്യം മദ്രരാജേന ഭാഷിതം ദ്രക്ഷ്യസ്യ് അദ്യേത്യ് അവോചദ് വൈ
ഇങ്ങനെയെങ്കിലും ഒന്നു ചെന്നുനിൽക്കാനായി സംഗതിവന്ന്തോർത്തു തൽക്കാലം എനിക്കുണ്ടായ
ബ്രഹ്മാനന്ദജലേനൈവ ലോകാഃ സർവേ പരിപ്ലുതാഃ അച്ഛേദ്യോ യമിതി ധ്യാനമഭിഷേചനമാത്മനഃ 14
ഡിക്ഷ്‌ണറി നൽകുന്ന നിർവ്വചനം`പ്രകൃതിദത്തമായ, പരിസ്ഥിതിക്ക്‌ വളരെ എളുപ്പം
വർഗ്ഗം: 2014 018 വർഗ്ഗം:ഡിജിറ്റൈസേഷൻ മത്സരം 2014 പൂച്ചമരം
കലശലായിട്ടുണ്ടെന്ന് അദ്ദേഹം മനസ്സിലാക്കിക്കഴിഞ്ഞു. എഴുത്തുകണ്ടിട്ടു ഒരുമണിക്കൂർ
പ്രണവബഹുവിധധ്യാനസംലീനചിത്താഃ ശ്രവണമുഖനയനനാസാനിരോധനേനൈവ കർതവ്യം ശുദ്ധസുഷുമ്നാസരണൗ
ഇച്ഛയുണ്ടങ്ങുനാകത്തിൽഗമിപ്പതി- നിപ്പോളിതെന്നതുകേട്ടോരു രാഘവൻ നന്ദിച്ചു സാനുജൻ
അപേക്ഷിച്ച് ദേഹസംബന്ധമായും മനോസംബന്ധമായും ഉള്ള വിചിത്രമായ കർമ്മങ്ങളെ
സൗകര്യം ഞാനെത്തിക്കുകയില്ല. അവർക്ക് സ്വന്തമായി അതിനുള്ള ശേഷിയില്ലതാനും. എന്നെ