വട്ടപ്പറമ്പിൽ വലിയമ്മ വട്ടപ്പറമ്പിൽ വലിയമ്മ കിളിരൂർകുന്നിന്മേൽ ഭഗവതി
മുതിർന്നവരുടെ കാഴ്‌ചപ്പാടിൽ താൾ: 228 താൾ: 229 താൾ: 230 താൾ: 231 താൾ: 232 താൾ: 233
02 01-150 13 2014 താൾ: 02 01-150 17 തെറ്റുതിരുത്തൽ വായന കഴിഞ്ഞവ */ താൾ: 1863. 83
കൈകൂലി. തുറസ്സായ കിണറാണെങ്കിൽ തുക ഇതിലും കൂടും. മലമുകളിലെ ഭൂമി നിരപ്പാക്കാൻ
കുളക്കടവിൽ കരയ്ക്കു ചെന്നു നിന്നു. നമ്പൂരി മറ്റൊരു വഴിയെ കരയ്ക്കു കയറി,
സർവമർമസ്വ് അതാഡയത് 33 സ താഡ്യമാനോ ബഹുഭിഃ ശരൈഃ സംനതപർവഭിഃ ന വിവ്യഥേ രാക്ഷസേന്ദ്രോ
താളിലേക്ക് തിരിച്ചുവിടുന്നു പ്രേമസംഗീതം കർണ്ണഭൂഷണം കർണ്ണഭൂഷണം ഖണ്ഡകാവ്യം ഉള്ളൂർ
കാണാവുന്ന വെള്ളക്കുള്ളന്മാരെല്ലാം ഈ വാർദ്ധക്യദശയുടെ പ്രതിനിധികളാണ്.
മതിൽക്കകത്തുണ്ടായ ഭൂകമ്പം ഇന്നപ്രകാരമെന്നു പറയാൻ പ്രയാസം. വാദ്യക്കാർ,
ഹ്രദാശ് ച തീർഥഭൂതാ മേ ഭവേയുർ ഭുവി വിശ്രുതാഃ 28 ഏതച് ഛ്രുത്വാ ശുഭം വാക്യം രാമസ്യ
അഗ്നിപർവ്വതസ്ഫുടനം മുതലായ കാരണങ്ങൾ മൂലം സ്ഥലം ജലവും ജലം
പ്രപഞ്ചം ന ചിത്താദി നാഹങ്കാരോ ന ജീവകഃ 32 മായാകാര്യാദികം നാസ്തി മായാ നാസ്തി ഭയം
ഗ്രഹിക്കാതെയങ്ങയച്ചീടിനാൻ. നവകനകഘടജനനചരിതമതു കണ്ടുടൻ നാപിതന്മാനസേ
തുല്യം ; ഇങ്ങനെ സാമാന്യവിശേഷഭാവം, കാര്യകാരണഭാവം, സാരൂപ്യം, എന്ന് മൂന്നു
നിനയ്ക്കെന്നാകിൽ സാമ്യമല്ലിതു രണ്ടും ഇതു നിസ്തുലമായ ഉദ്യാനം ആകുന്നു. ഇതിനു
സുഭോജനഃ 23 അബ്ജകാണ്ഡം ജഗത്ബീജം ധൃതം പാണൗ സ്വലീലയാ ഗരുഡോ വടഭാണ്ഡീരഃ സുദാമാ നാരദോ
പോയീലവനഥ. തൽക്ഷണം ദാശരഥിരാമഭദ്രനും ലക്ഷ്മണവീരനോടോതിനാനിങ്ങിനെ
ഇതി അഥ ഷണ്ഡഃ പതിതോഽംഗവികലഃ സ്ത്രൈണോ ബധിരോഽർഭകോ മൂകഃ പാഷണ്ഡശ്ചക്രീ ലിംഗീ കുഷ്ഠീ
പോയിക്കൊണ്ടിരിക്കുന്നു. എന്നാൽ അഭ്യാസം കൊണ്ട് മനുഷ്യന്ന് ഹൃദയത്തെപ്പോലും വരുതിയിൽ
ത്യജിച്ചുദുർമ്മതേ ധരിച്ചുകൊണ്ടാലും നിനക്കുഞാനിനി പതിയല്ലനിയ്യു- മിനിയ്ക്കു
കൊട്ടാരക്കരക്കാര്യക്കാരുടെ ആജ്ഞാനുസാരം ഒരു വിദഗ്ദ്ധനായ വേട്ടയാടി
(പുറത്ത്) നിന്നും അകത്തോട്ട് പ്രധാനസ്ഥാനമായ ഒത്ത മദ്ധ്യംവരെ നോക്കുന്നതായാൽ ആദ്യം
തലത്തിൽ നടത്തുന്നതാണ്‌ ഉചിതം. ഈ കാഴ്‌ചപ്പാടിന്റെ അടിസ്ഥാനത്തിൽ പശ്ചിമഘട്ടത്തിലെ. സർവൈഷണാവിനിർമുക്തഃ സ ഭൈക്ഷം ഭോക്തുമർഹതി 18 പൂജിതോ വന്ദിതശ്ചൈവ സുപ്രസന്നോ യഥാ
ചെയ്യപ്പെട്ടിരിക്കുന്നു. ഫിത്തർ ദിനത്തിലോ അസ്ഹാ ദിനത്തിലോ അദ്ദേഹം ജനങ്ങളൊന്നിച്ച്
സർവദൃശ്യവിഹീനോഽഹം ദൃഗ്രൂപോഽസ്മ്യഹമേവ ഹി. സർവദാ പൂർണരൂപോഽസ്മി നിത്യതൃപ്തോഽസ്മ്യഹം
ഏവർക്കും അവകാശമുണ്ടായിരിക്കും. അനുമതി 3.0 പ്രമാണം: ജ്യോതിഷവും ജ്യോതിശ്ശാസ്ത്രവും
കീഴാളവിഭാഗങ്ങൾക്കിടയിൽനിന്നുണ്ടായ എതിർപ്പിനെ സാമ്പ്രദായികചരിത്രരചനാരീതികൾ അധികവും
142 1930. 143 1930. 144 1930. 145 1930. 146 1930. 147 1930. 148 1930. 149 1930.
ഏറ്റവും ഉന്നതമായ, ഉത്കൃഷ്ടമായ സാമൂഹ്യനില അമ്മയുടേതാണ് എന്ന വാദത്തെ -
തന്നെ നയിച്ചുതുടങ്ങുന്നു. ആ അവഗാഹനം നിദ്രയോ ബോധക്ഷയമോ മൃതിയോ എന്നു
പ്രസാദം 14.7 സപുനസ്ത്വദുപാസനപ്രഭാവാദ്ദയിതാകാമകൃതേ കൃതേ വിമാനേ വനിതാകുലസങ്കുലോ
പറ്റിയതെന്ന് അവിടവിടെ പറഞ്ഞു വിട്ടാൽ മതിയായിരുന്നു. വമ്പു പേചുകിറാൻ) വമ്പു
കാണാം. വിക്കിഗ്രന്ഥശാല:കളരി പുസ്തകം ചേർക്കുക - ഇതു ഗ്രന്ഥശാലയിലേക്ക്
സംരക്ഷണത്തിന്‌ ഗണ്യമായ സംഭാവനകൾ നൽകിയ ആളുമായിരിക്കണം. 2. പശ്ചിമഘട്ടത്തിന്റെ
രഞ്ജിതം - അ. ന. പ്ര. ഏ. തപനീയമയേ - അ. ന. സ. ഏ. ഹി - അവ്യ വട്ടുകേ - അ. ന. സ. ഏ.
നാനാപാർശ്വസമുത്ഥിതാഃ 65 യാ നിയുക്താ നിയോഗേഷു കാര്യേഷു വിവിധേഷു ച ന ചോദ്ഭടാ
എലാവരും കൂടിപ്പോയി മണ്ട്റോ സായ്പവർകളെക്കണ്ടു വിവരം ബോധിപ്പിക്കുകയും സായ്പവർകൾ
ഭാര്യയായി എന്നർത്ഥമാകുന്നില്ല - ബാല്യത്തിൽനിന്ന് യൗവ്വനത്തിലേക്ക് അവൾ
ധർമ്മനാശംകൊണ്ട് എപ്രകാരം ശൂദ്രനാകുന്നോ അതിന്റെ രഹസ്യവിഷയങ്ങൾ നിനക്കായി
കേനാപി ഗദിതം യേന കേനാപി മോദിതം 56 യേന കേനാപി യദ്ദത്തം യേന കേനാപി യത്കൃതം. യത്ര
പ്രയോഗിച്ചിരിക്കുന്നു. 16. അവിമൃഷ്ടവിധേയാംശം വിധിക്കേണ്ടതായ ഭാഗത്തെ പ്രധാനമായി
സന്തോഷമായി. അവർ പല സസ്യങ്ങളെ ഒരു വലിയ പാത്രത്തിലിട്ട് അതിൽ നിന്ന് ഒരു മധുരമദ്യം
വിശുദ്ധീകരിച്ച വളരെ വേഗത്തിൽ ഉണക്കുന്നതാകുന്നു. വില ൮ ണ. മൂന്നു കുപ്പിവരെ വി-പി-
അധ്യായം10 അധ്യായം10 താൾ: 1868. 401 2014 വർഗ്ഗം:താളുകൾ - 1868 താൾ: 1907. 52 താൾ:
62 മെല്ലെത്തെക്കോട്ടേറ മാർഗം കടന്നാൽ ചെല്ലും ചൊവ്വേ കുഞ്ചരാഖ്യാചലത്തിൽ വെല്ലം
മൂർധാനമഭിജിഘ്രാമ്യസാവിതി ത്രിരസ്യ മൂർധാനമഭിജിഘ്രേദ്ഗവാ ത്വാ
വചസ്സുചൊല്ലുവാൻ മനസ്സിലുംകൂടി സ്മരിക്കയില്ലല്ലോ ഇവണ്ണമേയൊരുനിരൂപണമിപ്പോൾ
സുഖമൊടുമുടജേ ഞങ്ങളും വാണു മുന്നം. ഉത്തരരാമചരിതം. ഇവിടെ ഇതിനുടെ എന്ന സർവനാമം
ചെയ്യുമ്പോൾ മാത്രമാവുന്നു. ആ സൂക്ഷ്മസാക്ഷാല്ക്കാരം ഉണ്ടാകുന്നതിനു നാം
താൾ: 247 തെറ്റുതിരുത്തൽ വായന കഴിഞ്ഞവ */ ആ കണ്ഠീരവന്റെ ശ്രമം ഞാൻതന്നെ കണ്ടതാണ്.
 ഉത്ഥായോത്ഥായ ഹി യഥാ ദേഹിനാം ഇന്ദ്രിയൈർ വിഭോ 36 നരാശ് ചൈവ നരൈഃ സാർധം ദന്തിനോ
കൊള്ളുകയില്ലയോ? ക്രിസ്തു എല്ലാവരുടെയും മുൻപുണ്ടായിരുന്നതും പിന്നീട് ഉണ്ടാവാൻ
പൂനെ-29 39. ദേവവ്രത്‌ മേത്ത ടൂറിസം ഡെവലപ്‌മെന്റ്‌ സ്‌ട്രാറ്റജി ചെയർമാൻ വെസ്റ്റേൺ
പുതിയ നിയമം (ബെഞ്ചമിൻ ബെയ്‌ലി താൾ: തെറ്റുതിരുത്തൽ വായന കഴിഞ്ഞവ */ താൾ:
പാടേ നശിച്ചുപോകാൻ. വിലാപകാവ്യശാഖയ്ക്ക് കാലഗതിയിൽ പലേ ഉൾപ്പിരിവുകളും
വിപ്രലബ്ധാ വാ തഥാ പ്രോഷിതഭർതൃകാ തഥാഭിസാരികാ ചൈവ ജ്ഞേയാസ്ത്വഷ്ടൗ തു നയികാഃ 212
(മണപ്പാട്ടു-ബങ്കാളത്തിനു)പോയപോലെ- 1115 കൂറപ്പേൻ ചിനത്താൽ കുതിരക്കുട്ടിയാമൊ- 1116
വേണ്ട പോലെ അദ്ദേഹം വിവരിച്ചു. ബ്രഹ്മാവിൽ നിന്ന് ഈ വിദ്യ ദക്ഷൻ പഠിച്ചു. അദ്ദേഹം
ദേവീം ധ്യായേന്മഹാധ്യാന- യോഗേനേയമേവം വേദേതി മഹോപനിഷത് ഇതി പ്രഥമോപനിഷത് 1 അഥാതോ
ഇരുവിഭാഗവും രക്ഷപ്പെടുകയും ചെയ്യും. (ബുഖാരി. 3. 44. 673) 5) അബ്ദൂല്ലാഹിബ്നു
വിശയമില്ലേതും വരുത്തുകയില്ല നിനക്കിതിനൊരു ഗുരുവാരായതു-
പൈദാഹദിയുന്തീർന്നുസാദരമ്മുന്നിനുന്ന മെരുംവനംപ്രാപിച്ചാധിപൂണ്ടന്വെഷിച്ചു
ചെയ്യുന്നതിനുവേണ്ടി ആകുന്നുവെങ്കിൽ അതൊരു പ്രകാരത്തിൽ ചേരും. എന്തുകൊണ്ടെന്നാൽ