കേട്ടു മുന്നേ. അനു. വിണ്ണിലുമില്ല നൂനം അന്യലോകത്തിങ്കലും എന്നുവന്നിതു നാരദേരിതം
ദീപ്തിമത്തുക്കളായ രംഗദീപങ്ങളുടെ അസാധരണപ്രകാശത്തിൽ കാഴ്ച്ചക്കാരായ അനേകം ജനങ്ങളെ
ഗ്രഹീതും - തുമു. അവ്യ. അന്വയം - ഹേ മാതാഃ! ത്വയി സമർച്ചനം കൃപയാ ഗ്രഹീതും ദിശി ദിശി
 തന്നെയാണു്. പൂർവ്വകാലങ്ങളിൽ സാഹിത്യകാരന്മാർ അത്ര സുലഭമായിരുന്നില്ല.ഇതു്
വിക്കിഗ്രന്ഥശാല ഉപയോക്താവ് വിക്കിഗ്രന്ഥശാലാപരിപാലനം വർഗ്ഗം:ഉപയോക്താക്കൾ
1907. 96 താൾ: 1914. 2014 താൾ: 1871. 25 2014 താൾ: 1914. 30 2014 താൾ: 1772. 256
മംഗലേ നിയമസ്ഥിതേ തിഥിനക്ഷത്രയോഗേ ച വിവാഹകരണേ തഥാ 123 ധർമപ്രവൃത്തം യത്കർമ സ്ത്രിയോ
സംസ്കൃതഭാഷയാണ് എല്ലാ ഭാഷകളുടേയും മാതാവ് എന്ന് എല്ലാ ഭാരതീയവിദ്വാന്മാരും ശക്തമായി
ദേവർഷയഃ സിദ്ധാശ് ചാരണാശ് ച സമാഗതാഃ പ്രൈക്ഷന്ത തദ് രണം ഘോരം ദേവാസുരരണോപമം 82 തതോ
പ്രശ്രയേണ ദമേന ച സർവകാമക്രിയാഭിശ് ച സർവേഷാം തുഷ്ടിം ആവഹത് 20 ശ്വശ്രൂം
രക്തവർണ്ണ മുള്ളതായും കാണാം. ഇവിടെ നാം ഏറെക്കുറെ ദൃഷ്ടിഗോചരങ്ങളായ ജലജന്തുകളെ
എന്തെങ്കിലും ഉപയോഗം ഉണ്ടായിരിക്കണം. സാങ്കേതികമായി പറയുമ്പോൾ അവയ്ക്ക്
ഹ്രദേഷ്വ് ഏതേഷു യഃ സ്നാത്വാ പിതൄൻ സന്തർപയിഷ്യതി പിതരസ് തസ്യ വൈ പ്രീതാ ദാസ്യന്തി
പ്രദേശത്തിന്‌ ചുറ്റുമുള്ള കരുതൽ മേഖലയ്‌ക്കായുള്ള നിർദ്ദിഷ്‌ടമാനേജ്‌മെന്റ്‌
അക്ഷ്യന്തസ്താരയോഃ ചന്ദ്രസൂര്യപ്രതിഫലനം ഭവതി. താരകാഭ്യാം സൂര്യചന്ദ്രമണ്ഡലദർശനം
തരംതിരിച്ചാൽ അവ വസ്തുപ്രധാനമായ കാവ്യശാഖയിലേ ഉൾപ്പെടുകയുള്ളുവെങ്കിലും,
ലക്ഷ്യാലക്ഷ്യമതിം ത്യക്ത്വാ യസ്തിഷ്ഠേത്കേവലാത്മനാ. ശിവ ഏവ സ്വയം സാക്ഷാദയം
സപ്തദ്വീപവതീ ഭൂമിർദക്ഷിണാർഥം നാവകൽപതേ തസ്മാച്ഛ്രദ്ധയാ യാം കാഞ്ചിദ്ഗാം ദദ്യാത്സ
വളമിട്ടിടുമ്പോൾ ഉറ്റുള്ളോർ കുടിവതൊരുക്കാകുള്ളിനേറ്റം പറ്റും അഭ്രിപുഗണകാർപ്പാതാശു
ജനങ്ങളെ ഭൂമിപ്പിക്കും എന്നുള്ളതിലേക്കു യാതൊരുസംശയവും ഇല്ല. കല്പനാശക്തിയാൽ
പുനരൂചുരിദം വാക്യം കുതൂഹലപുരോഗമം യസ്ത്വയാ ഗദിതോ ഹ്യേഷ നാട്യവേദഃ പുരാതനഃ ഏകചിത്തൈഃ
നിന്ദിയ്ക്കരുതൊരാളയുംനീരജനേത്രേ!
കുറിക്കുന്നതിൽ മഹത്തായ പങ്കുവഹിച്ചു. എഴുത്തുകാർക്ക് അർഹമായ പ്രതിഫലം
ധ്യാതവ്യാഭാവവിജ്ഞാനം നിദിധ്യാസനമാത്മനഃ സമസ്തഭ്രാന്തിവിക്ഷേപരാഹിത്യേനാത്മനിഷ്ഠതാ
വർഗ്ഗം:ബാലസാഹിത്യം വർഗ്ഗം:പി. പദ്മനാഭപിള്ളയുടെ രചനകൾ വർഗ്ഗം:പട്ടത്താനം
കേൾക്കുകയുണ്ടായി. (ബുഖാരി. 2. 23. 458) 82) അബൂഹുറൈറ(റ) നിവേദനം: നബി(സ) ഇപ്രകാരം
മലബാറിനെക്കുറിച്ചുള്ള റിപ്പോർട്ടുകളുടെ സമാഹരണം (അപ്രകാശിതം) മലയാള ലത്തീൻ നിഘണ്ടു
നാമ 43 അരുഗ്വാൻ ഖലു മാഗധീം ഉപയേമേ ഽമൃതാം നാമ തസ്യാം അസ്യ ജജ്ഞേ പരിക്ഷിത് 44
വീണപോലെ വിശുദ്ധമായിട്ടു മുഴങ്ങി മാമ്പൂ രസത്തിനാലക്കളകണ്ഠകണ്ഠം.31
ശിഷ്യന്മാർക്കും ഗെലീലായിൽവച്ച് യേശു ആദ്യപ്രാവശ്യം കാണപ്പെട്ടു. (മത്തായി 1ഞ്ജ-40)
മലയാളമഹാകാവ്യങ്ങൾ വർഗ്ഗം:മലയാളമഹാകാവ്യങ്ങൾ ഉമാകേരളം/പത്താം സർഗ്ഗം ഉമാകേരളം
ഹരിഹരസമൻ ശരീരകോമളൻ ശരീരഭാസുരൻ ഘനാഘനശ്യാമൻ ഘനാഘനാശനൻ സനാതനമുനിജനവനക്ഷമൻ
കൂടെയുണ്ടായിരുന്ന പരിചാരകന്മാരും മോതിരത്തിന്റെ കാര്യം ഓർത്തില്ല. ചേരമാൻ പെരുമാൾ
സാക്ഷിയായും വർത്തിക്കുന്ന, കൂടസ്ഥബ്രഹ്മചൈതന്യത്തേയാണ് ഉപനിഷത്തു കൾ തുരീയമെന്നു
നടന്നിട്ടില്ലാത്തവ */ ' മംഗളോദയം കമ്പനി താൾ സൃഷ്ടിച്ചിര 33023 താൾ: 1 1934. താൾ: 1
യേശുവിനുണ്ടായിരുന്നെങ്കിൽ നിശ്ചയമായിട്ടും ഒളിച്ചുനടക്കുകയില്ലായിരുന്നു.
ഭക്തിമത് കല്പലതികായൈ നമഃ ഓം പശുപാശ വിമോചിന്യൈ നമഃ ഓം സംഹൃതാശേഷ പാഷണ്ഡായൈ നമഃ ഓം
13 തെറ്റുതിരുത്തൽ വായന കഴിഞ്ഞവ */ 26037 താൾ: 1933. 153 തെറ്റുതിരുത്തൽ വായന
ഇതിത്തരം കേട്ടോരളവു ലക്ഷ്മണൻ ഉരത്താനിങ്ങിനെ രഘുവരനോടും ജനകജയോടും പറഞ്ഞു ദീനനായ്
ഭൂമിയിലെല്ലായിടത്തും പകലും രാത്രിയും തുല്യം (12 മണിക്കൂർ) ആയിരിയ്ക്കും ഭൂമിയ്ക്കു
വർഗ്ഗം:താളുകൾ - 1772 താൾ: 1915. 229 2014 വർഗ്ഗം:താളുകൾ - 1915 താൾ: 1772. 87
അനുഷ്ടുപ്പ്‌പത്ഥ്യാവക്ത്രം) 109 യസ്യാത്മഭൂതസ്യ ഗുരോഃ പ്രസാദാദ്‌- അഹം വിമുക്തോ
വാണികളിൽ സ്വസ്വാശയാവിഷ്‌കരണം ചെയ്തിരിക്കുന്നതും തദ്ദ്വാരാ
ലക്ഷണാനി ഷട്ത്രിംശദുദ്ദേശനിദർശനാനി പ്രബന്ധശോഭാകരണാനി തജ്ജ്ഞൈഃ സമ്യക് പ്രയോജ്യാനി
സഞ്ചിന്തനത്തിന്നു പാത്രമാകും ദൃഢം. സരസതരമിതി വചനമരചനുരചെയ്തുടൻ സോമശർമ്മാഖ്യൻ
തെറ്റുതിരുത്തൽ വായന നടന്നിട്ടില്ലാത്തവ */ 'രുന്ന ജലസമൂഹത്തിന്റെ ഊക്കേറിയ ഗതിയെ
അബൂഹുറൈറ(റ) നിവേദനം: നബി(സ) അരുളി: പരലോകദിവസം മനുഷ്യരുടെ വിയർപ്പ് കൂടുതൽ
പകർപ്പവകാശം ഈ സിഡിയിലെ ലേഖനങ്ങളിലെ എഴുത്തു് ക്രിയേറ്റീവ് കോമൺസ്
കുന്ദലത ധർമ്മരാജാ രാമരാജാബഹദൂർ ഭാസ്ക്കരമേനോൻ ബാലസാഹിത്യം വായിച്ചാലും വായിച്ചാലും
ചരകസംഹിത/കൽപസ്ഥാനം/സപ്‌തളാ ശംഖിനീകൽപം സപ്‌തളാ ശംഖിനീകൽപം
കുര്യാത്പൃഥക്പൃഥക് 82 ഇത്യാദിചേഷ്ടനം പ്രാണഃ കരോതി ച പൃഥക്സ്ഥിതം.
അവച്ഛന്നൗ തതഃ കൃഷ്ണൗ ദൃഷ്ട്വാ തത്ര മഹാരഥാഃ വിസ്മയം പരമം ഗത്വാ പ്രൈക്ഷാന്ത കുരവസ്
122.അവർ=കരഭകരാക്ഷസന്മാർ 123.ഗുണപ്രശംസചെയ്തമാ താൾ താൾ: 1914. 103 തെറ്റുതിരുത്തൽ
സമഹർഷയസ്താം രത്നേ സശങ്ക ഇവ മൈഥിലഗേഹമേത്യ രാമോ ഗദാം സമശിശിക്ഷത ധാർതരാഷ്ട്രം 80.9
കൊടുത്തുചൊല്ലിനാൾ സുദതിനിന്നുടെ ശരീരചേഷ്ടയെ- സ്സഹജം പോലവേ പരിശോഭിപ്പിയ്ക്കും
18) അബൂഹുറൈറ(റ) നിവേദനം: നബി(സ) അരുളി: വല്ലവനും ഒരു മലയുടെ മുകളിൽ നിന്ന് ചാടി
ളവുമധികാരത്തേനടുന്നവരാം.ജിവന്മുക്തർക്ക താൾ 26044 താൾ: 3 1924. 234 തെറ്റുതിരുത്തൽ
പ്രമാണം: 189-2197 200 കേരളത്തിന്റെ ചരിത്രകാരികൾ 10 ഡോ. കെ. ശാരദാമണി
അദ്ദേഹം ആ കേന്ദ്രം നോക്കി, ആപൻമൃതികളെന്ന അവസ്ഥകളെ മറന്നു, സ്വയംവൃതമായുള്ള
നരർഷഭഃ 224 സ സത്കൃത്യ യദുശ്രേഷ്ഠം മാതുലം ശൗരിം ആത്മനഃ ദദർശ യദുവീരാണാം ആപനേ വൈശസം
രാജഞ് ശാന്തനവസ്യ തേ 20 സ തു ഗോവാസനഃ ശൈബ്യഃ സഹിതഃ സർവരാജഭിഃ യയൗ മാതംഗരാജേന
ആളുതന്നെ. അവരെ ആ വിശാരമാണ് എന്റെ കുഞ്ഞിനെ മയക്കി കഴുകിന് എരയാക്കണതെന്നുമാത്രം
ചെറിയത്തിന്റെ വൎഗ്ഗം, മറ്റേകോണുകളിൽ ഖണ്ഡദ്വയഘാതക്ഷേത്രങ്ങളും_ ഈ നാലു ക്ഷേത്രവും
പിത്താശയത്തിൽ ചേർത്തുവെക്കുന്നതായി നാം താൾ: 1917. 112 താൾ: 1917. 113 95